player,skill_mu,skill_sig
Daniel Evans,34.45659960211234,0.6025081671252895
Evgeny Donskoy,35.25283154782675,0.6033820988969621
Dmitry Tursunov,32.093307904089365,0.604236222656068
Michael Berrer,34.04517116910069,0.6078215840304909
Samuel Groth,34.91606563391138,0.6092765697236133
Igor Andreev,31.385882196352913,0.6032301372748683
Donald Young,36.161549412391814,0.6009978220236721
Jo-Wilfried Tsonga,35.74795845894925,0.6061194182188854
Mikhail Youzhny,34.97135293018372,0.6041393486032377
James Ward,33.91345489396654,0.6047365820257702
Malek Jaziri,33.95419743229511,0.6047835426064103
Juan Monaco,35.632451982019546,0.6002925817954236
Jiri Vesely,34.932474709340916,0.6070725253540147
Carlos Berlocq,34.30670041332681,0.6020802953486587
Gilles Muller,35.3639563078453,0.6043431917726559
Jan-Lennard Struff,33.117223877133824,0.6049127781667236
Aljaz Bedene,35.225838442771185,0.6064054765282317
Daniel Brands,34.725498877273246,0.607525183788023
Viktor Troicki,34.98647470916606,0.601018491189914
Ernests Gulbis,35.43682880977372,0.6109913971662174
Adrian Mannarino,35.1439201066246,0.6038391973633955
Alex Kuznetsov,33.52107975825236,0.6051676698335157
Tatsuma Ito,34.193710921322825,0.6033002521142317
John Isner,36.95625132461859,0.612166126242614
Fabio Fognini,35.230492900883625,0.6007627104188606
Go Soeda,33.40154632616738,0.6053634614964539
Jarkko Nieminen,34.67035209823982,0.6030165936049513
Brian Baker,35.370078099652076,0.6007617584941529
Michael Llodra,35.56748417875501,0.6043729894265686
James Duckworth,35.02671923934302,0.6061461543857544
Sergiy Stakhovsky,33.52945398238867,0.6083780443025512
Kevin Anderson,37.03948442794111,0.6102310862829229
Jesse Levine,34.08305712082945,0.6020375899597082
Dustin Brown,35.289332196514124,0.6067246952251377
Richard Gasquet,37.79116351733647,0.6060119172357755
Bradley Klahn,33.833208423568976,0.6046697507890019
Mischa Zverev,34.85754359054481,0.6029653948767804
Joao Sousa,36.36071570669139,0.6020321624162478
Alexandr Dolgopolov,35.59796505339798,0.6033907284813645
Juan Carlos Ferrero,35.803492862454135,0.6019588269775862
Marinko Matosevic,34.847464103603926,0.602713240149049
Flavio Cipolla,33.08457903888323,0.5986417346386748
Yen-Hsun Lu,36.20692772009907,0.6021755444666046
Daniel Gimeno-Traver,35.15310813660764,0.6035486877649034
Milos Raonic,36.300505626384805,0.6101259686299686
Stephane Robert,32.25953854930928,0.6030983303616757
Nicolas Almagro,35.1674242398454,0.6048168394711129
Filippo Volandri,34.10204158770256,0.6033885434950241
Nikolay Davydenko,34.34489145693539,0.6025724082253356
Lleyton Hewitt,34.49353651200228,0.6017737075942581
Igor Kunitsyn,34.1776350204448,0.6012178389785131
Vasek Pospisil,35.225348789989646,0.6075973848016223
Matteo Viola,32.28690115202239,0.6047126461736506
David Goffin,34.670202033079455,0.6023048803554194
Diego Sebastian Schwartzman,34.10032304664634,0.6007295008914422
Simone Bolelli,35.650388979199676,0.6064035039221035
Ricardas Berankis,34.1592287905178,0.604079242575909
Tommy Robredo,34.93853349178357,0.604287057734028
Jimmy Wang,33.77518704526707,0.6088396180834859
Albert Montanes,35.41775082194379,0.6035008645693454
Dusan Lajovic,34.23916875796705,0.6038890969857353
Mikhail Kukushkin,34.993173564980005,0.6033070660174982
Federico Delbonis,35.65466210220882,0.6038021821984577
Victor Hanescu,34.55419201045352,0.6030700398775463
Jack Sock,35.78874092484238,0.6043578117542308
Paolo Lorenzi,34.334169380310556,0.604475147403502
Pierre-Hugues Herbert,35.4356298662149,0.6072742614057999
Jerzy Janowicz,34.93950019906576,0.6068430050395788
Steve Darcis,34.33344042960449,0.6035488819463399
Thanasi Kokkinakis,35.778841602107356,0.6046526198670025
Marius Copil,34.08401733805397,0.6073855101471485
Pere Riba,34.300177154595524,0.6039511664164516
Ruben Bemelmans,34.90811980516102,0.6055111772338747
Tomas Berdych,36.56598985342869,0.6034317960326726
Guido Pella,35.088693070032754,0.6070056153500908
Pablo Andujar,35.0171931512552,0.6014024144540675
Jan Hajek,34.31740324727036,0.6007716264428452
Jeremy Chardy,35.85888318251227,0.6032064416279693
Cedrik-Marcel Stebe,33.197627471451355,0.6023763127190574
Lukasz Kubot,34.44017507262048,0.6094194212835364
Pablo Cuevas,34.91946445129354,0.6016304155005177
Jurgen Melzer,32.891812428003185,0.6024923242356411
Peter Gojowczyk,34.68848542670914,0.6038319540025406
Florian Mayer,34.15103429622722,0.6010149095354111
Andrey Golubev,33.40758691497588,0.6038805005646644
James Blake,35.957381434306605,0.6026282772389613
Lukas Lacko,32.28200056057814,0.6068927958971079
Leonardo Mayer,35.170202737922615,0.6061322318405787
Steve Johnson,36.50903661692782,0.606580631279826
Nick Kyrgios,35.22465146069952,0.6063826106493254
Benoit Paire,35.42620052574242,0.6003367113376005
Andreas Haider-Maurer,34.21434553991557,0.6056277970987131
Marin Cilic,36.36389669901555,0.6047026022143407
Tim Smyczek,33.67630836457553,0.6047527145100007
Philipp Kohlschreiber,36.52389323501233,0.6073918922721606
Somdev Devvarman,34.79359094659327,0.6024471271140334
Guillaume Rufin,36.22355650004368,0.6015234991812127
Joao Souza,33.644965509777045,0.6055390276192731
Gastao Elias,34.104197437012544,0.6010255365478295
Lucas Pouille,33.66721218984338,0.6025764779929386
Julien Benneteau,34.90616948491802,0.6061597256835818
Matthew Ebden,32.72521035637367,0.603966618857896
Andy Murray,36.194415332692564,0.6011341808163227
Frederico Gil,33.989825000302055,0.6045363805393955
Alejandro Falla,33.62903130363147,0.602186297709378
Philipp Petzschner,33.960050434258754,0.6033390580259224
Richard Berankis,35.65102207532489,0.6040770178469623
Matthias Bachinger,34.970777543407465,0.6038832530769445
Andreas Seppi,34.26958367773107,0.6029630325965881
Roger Federer,38.467198361548284,0.6049655778043499
Xavier Malisse,34.39958493874638,0.601847988924902
Michal Przysiezny,34.297492048456334,0.606412529160899
Juan Martin del Potro,36.445395028591236,0.6081123386080314
Rhyne Williams,34.464857437760365,0.6076436934769044
Martin Klizan,34.71084799171388,0.6045418551865636
Tommy Haas,35.046879574035174,0.6062177832633112
Thomaz Bellucci,36.80133485793574,0.6033498385773045
Andrey Kuznetsov,34.30048837904125,0.6012844326215456
Teimuraz Gabashvili,33.837282159993876,0.6012864742818431
Radek Stepanek,35.414835796468566,0.6065973985893559
Benjamin Becker,35.62913886202147,0.6035126974739965
Adrian Ungur,33.984012506452196,0.6038268594690063
Denis Kudla,34.19306183876801,0.6038335290000922
Denis Istomin,33.84223456698815,0.6041599313148134
Santiago Giraldo,34.482730313011835,0.603767955696229
Lukas Rosol,35.70712889288385,0.6039261384919546
Jan Hernych,34.923704897233804,0.6016776428040644
Borna Coric,32.29277408950671,0.6052120008004304
David Nalbandian,35.73090435314831,0.5999437402015132
Nicolas Mahut,35.36014506789373,0.60388581164257
Novak Djokovic,39.46996925139842,0.6025191798825543
Marcel Granollers,35.26100600205171,0.6025383665723921
Gael Monfils,36.51260278286935,0.604887816785125
Sam Querrey,35.06959736385964,0.6086298971257532
Stan Wawrinka,37.50606393459754,0.6033536635989579
Olivier Rochus,33.68122397165154,0.6043506627458385
Ivo Karlovic,35.362858999611625,0.6179470770624182
Mardy Fish,35.83413326592313,0.6020009736347448
Fernando Verdasco,35.14051700639664,0.6051417672014316
Horacio Zeballos,33.31800891555464,0.6055612117733801
Frank Dancevic,34.08887168425585,0.6049667160839339
Jurgen Zopp,34.60550089042246,0.6045096528880454
Florent Serra,33.592195205298545,0.6085194764932652
Marcos Baghdatis,36.66413189673121,0.6038053543793743
Marco Chiudinelli,34.73683429885473,0.6040824946245246
Guillermo Garcia-Lopez,34.85933128614969,0.6022909325597898
Albert Ramos,34.7892374248622,0.6035290378947569
Janko Tipsarevic,34.48750036595237,0.6032535002194352
Alejandro Gonzalez,33.805256270384064,0.6029955040129372
Feliciano Lopez,35.293481736986834,0.603979236991062
David Ferrer,36.24942022715808,0.60137881441375
Dominic Thiem,34.448417761456994,0.6085541484028792
Ryan Harrison,34.084468087872935,0.6035096052576419
Roberto Bautista-Agut,35.720928665872044,0.604313046254028
Grega Zemlja,33.56476301374393,0.6038539987356245
Robin Haase,35.41080725225231,0.6044076904006215
Marsel Ilhan,34.23359443176493,0.6046486656304223
Kei Nishikori,36.62146071837396,0.6038414575093614
Blaz Kavcic,33.93440259636134,0.6004242697776745
Julian Reister,34.72912234751162,0.601976085551383
Kenny de Schepper,34.589645090211654,0.6109229867556821
Dudi Sela,35.74524503044009,0.6005535347362494
Paul-Henri Mathieu,34.29518281088879,0.6015461437099553
Igor Sijsling,35.17465536765867,0.6063363731452966
Robby Ginepri,35.964656363162085,0.604828569651807
Bernard Tomic,35.591563704238155,0.6036807696589065
Rajeev Ram,32.5341996017563,0.6052920658974851
Stanislas Wawrinka,36.127128894101425,0.6041304156682343
Bjorn Phau,35.55547721676994,0.6017410227108542
Rafael Nadal,37.80544135861922,0.6023126249783304
Gilles Simon,34.94077301741426,0.599878460308347
Ivan Dodig,34.61127046046298,0.6022900536958806
Tobias Kamke,33.48429825553644,0.6009729780207176
Edouard Roger-Vasselin,34.74817796604167,0.6048272351723659
Andy Roddick,36.18193787108438,0.6088133625211327
Alex Bogomolov Jr,34.38023430902935,0.603532115574803
Grigor Dimitrov,35.66923782683426,0.6042701836073789
Thiemo de Bakker,35.449486947150696,0.6030102500502095
Michael Russell,34.18091807824209,0.6015080011967797
Pablo Carreno-Busta,34.979621060705014,0.6021043748364372
