,mu,sigma,beta,dynamics,burin,brier_score,total_num_entry,total_num_wrong_entry
0,35,15.0,21,0.06,0,0.2495137621024741,119561.7,57286.6
1,35,15.0,21,0.06,1,0.24951645783677243,119545.9,57281.3
2,35,15.0,21,0.06,2,0.2495165479776113,119529.9,57274.1
3,35,15.0,21,0.06,3,0.24951754609967405,119515.1,57267.4
4,35,15.0,21,0.06,4,0.24951507799794373,119499.0,57260.0
5,35,15.0,21,0.06,5,0.24951107073500647,119483.0,57250.9
6,35,15.0,21,0.06,6,0.24950892988226703,119466.3,57242.8
7,35,15.0,21,0.06,7,0.24950691688008172,119451.0,57234.6
8,35,15.0,21,0.06,8,0.24950492637837152,119433.9,57225.3
9,35,15.0,21,0.06,9,0.24950156861754844,119417.6,57217.1
10,35,15.0,21,0.06,10,0.24950060970038845,119403.4,57209.9
11,35,15.0,21,0.06,11,0.2494994867315778,119386.7,57201.4
12,35,15.0,21,0.06,12,0.24949833993589304,119370.3,57193.6
13,35,15.0,21,0.06,13,0.24949669805805819,119356.7,57186.4
14,35,15.0,21,0.06,14,0.24949387279603105,119340.1,57177.3
15,35,15.0,21,0.06,15,0.24949237222604811,119325.4,57169.2
16,35,15.0,21,0.06,16,0.24948975397659887,119309.8,57160.7
17,35,15.0,21,0.06,17,0.24948799654322268,119291.9,57151.6
18,35,15.0,21,0.06,18,0.2494843134088586,119274.5,57141.5
19,35,15.0,21,0.06,19,0.2494820335365931,119257.6,57132.3
20,35,15.0,21,0.06,20,0.2494796526366015,119242.2,57123.7
21,35,15.0,21,0.06,21,0.24947999009545518,119226.9,57116.9
22,35,15.0,21,0.06,22,0.24947899665648277,119210.0,57108.8
23,35,15.0,21,0.06,23,0.2494781322353154,119194.4,57101.6
24,35,15.0,21,0.06,24,0.2494764811052644,119178.8,57093.9
25,35,15.0,21,0.06,25,0.24947565702035984,119162.9,57085.4
26,35,15.0,21,0.06,26,0.24947284618885862,119146.3,57075.8
27,35,15.0,21,0.06,27,0.24947133436662958,119130.1,57067.6
28,35,15.0,21,0.06,28,0.24947132389065066,119112.3,57058.2
29,35,15.0,21,0.06,29,0.24947120175086263,119097.3,57050.9
30,35,15.0,21,0.06,30,0.24946893440884838,119081.6,57041.6
31,35,15.0,21,0.06,31,0.24946968528040409,119066.2,57035.1
32,35,15.0,21,0.06,32,0.24946780934168586,119050.0,57026.1
33,35,15.0,21,0.06,33,0.2494675816386947,119033.8,57018.6
34,35,15.0,21,0.06,34,0.2494669412400369,119017.9,57011.1
35,35,15.0,21,0.06,35,0.24946579786082715,119003.6,57003.7
36,35,15.0,21,0.06,36,0.24946633750760228,118987.9,56996.6
37,35,15.0,21,0.06,37,0.24946624581820576,118973.9,56990.0
38,35,15.0,21,0.06,38,0.24946537535351246,118955.9,56980.8
39,35,15.0,21,0.06,39,0.24946479074174738,118941.5,56973.4
40,35,15.0,21,0.06,40,0.2494639892159946,118925.0,56965.4
41,35,15.0,21,0.06,41,0.24946247661205093,118907.3,56955.9
42,35,15.0,21,0.06,42,0.24946225338334505,118890.6,56947.1
43,35,15.0,21,0.06,43,0.24946160121283642,118873.1,56939.1
44,35,15.0,21,0.06,44,0.24946147858417866,118855.4,56930.1
45,35,15.0,21,0.06,45,0.24946037116206318,118840.8,56922.3
46,35,15.0,21,0.06,46,0.24946064093595638,118824.5,56914.0
47,35,15.0,21,0.06,47,0.2494608235548797,118809.6,56907.1
48,35,15.0,21,0.06,48,0.2494597209205271,118793.0,56898.8
49,35,15.0,21,0.06,49,0.2494595625037923,118777.9,56891.4
50,35,15.0,21,0.06,50,0.2494590566531997,118761.1,56883.5
51,35,8.0,15,0.02,0,0.24939784744946664,119561.7,57264.6
52,35,8.0,15,0.02,1,0.2493996832830907,119545.9,57258.9
53,35,8.0,15,0.02,2,0.24940020329374724,119529.9,57251.9
54,35,8.0,15,0.02,3,0.2494012747273647,119515.1,57244.9
55,35,8.0,15,0.02,4,0.24939981003075679,119499.0,57237.1
56,35,8.0,15,0.02,5,0.24939715344030655,119483.0,57227.9
57,35,8.0,15,0.02,6,0.24939589994954217,119466.3,57219.4
58,35,8.0,15,0.02,7,0.24939469971148331,119451.0,57211.0
59,35,8.0,15,0.02,8,0.24939322190672314,119433.9,57202.0
60,35,8.0,15,0.02,9,0.24939074546409395,119417.6,57193.6
61,35,8.0,15,0.02,10,0.24939026784331486,119403.4,57186.7
62,35,8.0,15,0.02,11,0.24938983567900236,119386.7,57178.4
63,35,8.0,15,0.02,12,0.24938906412602932,119370.3,57170.8
64,35,8.0,15,0.02,13,0.24938781997123569,119356.7,57162.9
65,35,8.0,15,0.02,14,0.24938551013481497,119340.1,57153.7
66,35,8.0,15,0.02,15,0.24938441130581884,119325.4,57145.8
67,35,8.0,15,0.02,16,0.24938243332439777,119309.8,57137.2
68,35,8.0,15,0.02,17,0.24938113959281072,119291.9,57128.0
69,35,8.0,15,0.02,18,0.24937804815171566,119274.5,57118.3
70,35,8.0,15,0.02,19,0.24937620802737032,119257.6,57109.1
71,35,8.0,15,0.02,20,0.24937416882498037,119242.2,57100.5
72,35,8.0,15,0.02,21,0.24937451138747524,119226.9,57093.6
73,35,8.0,15,0.02,22,0.2493736932014358,119210.0,57085.4
74,35,8.0,15,0.02,23,0.2493730452265584,119194.4,57078.1
75,35,8.0,15,0.02,24,0.24937166170910624,119178.8,57070.3
76,35,8.0,15,0.02,25,0.249370996429266,119162.9,57062.1
77,35,8.0,15,0.02,26,0.24936855949506934,119146.3,57052.4
78,35,8.0,15,0.02,27,0.24936732180418913,119130.1,57044.5
79,35,8.0,15,0.02,28,0.24936742242607174,119112.3,57035.0
80,35,8.0,15,0.02,29,0.24936733479944584,119097.3,57027.5
81,35,8.0,15,0.02,30,0.24936533031786592,119081.6,57018.3
82,35,8.0,15,0.02,31,0.24936615798697864,119066.2,57011.5
83,35,8.0,15,0.02,32,0.24936453254263627,119050.0,57002.7
84,35,8.0,15,0.02,33,0.2493643803955196,119033.8,56995.3
85,35,8.0,15,0.02,34,0.24936390432455663,119017.9,56987.6
86,35,8.0,15,0.02,35,0.24936299683038085,119003.6,56980.3
87,35,8.0,15,0.02,36,0.24936354336856237,118987.9,56973.4
88,35,8.0,15,0.02,37,0.2493635106320152,118973.9,56966.9
89,35,8.0,15,0.02,38,0.2493628222326528,118955.9,56958.0
90,35,8.0,15,0.02,39,0.24936230622631816,118941.5,56950.7
91,35,8.0,15,0.02,40,0.24936163344984857,118925.0,56943.2
92,35,8.0,15,0.02,41,0.24936020459630562,118907.3,56933.3
93,35,8.0,15,0.02,42,0.24935997506166324,118890.6,56924.6
94,35,8.0,15,0.02,43,0.24935942547734644,118873.1,56916.9
95,35,8.0,15,0.02,44,0.24935935221698458,118855.4,56907.8
96,35,8.0,15,0.02,45,0.2493582897888836,118840.8,56900.1
97,35,8.0,15,0.02,46,0.24935857993033017,118824.5,56892.0
98,35,8.0,15,0.02,47,0.2493587844616496,118809.6,56885.0
99,35,8.0,15,0.02,48,0.24935780496612373,118793.0,56876.9
100,35,8.0,15,0.02,49,0.24935766997982597,118777.9,56869.6
101,35,8.0,15,0.02,50,0.24935723780439809,118761.1,56861.7
102,35,11.5,18,0.02,0,0.24940884762024845,119561.7,57263.5
103,35,11.5,18,0.02,1,0.24941118570604276,119545.9,57257.9
104,35,11.5,18,0.02,2,0.2494115011446562,119529.9,57250.9
105,35,11.5,18,0.02,3,0.24941256650104443,119515.1,57244.1
106,35,11.5,18,0.02,4,0.2494105547942314,119499.0,57236.7
107,35,11.5,18,0.02,5,0.24940710179097564,119483.0,57227.7
108,35,11.5,18,0.02,6,0.2494053450393035,119466.3,57219.6
109,35,11.5,18,0.02,7,0.24940365716802698,119451.0,57211.3
110,35,11.5,18,0.02,8,0.24940185146813235,119433.9,57202.2
111,35,11.5,18,0.02,9,0.24939883048478667,119417.6,57193.9
112,35,11.5,18,0.02,10,0.249398062567385,119403.4,57186.8
113,35,11.5,18,0.02,11,0.24939720441389784,119386.7,57178.1
114,35,11.5,18,0.02,12,0.24939621082176683,119370.3,57170.4
115,35,11.5,18,0.02,13,0.24939473504434728,119356.7,57162.8
116,35,11.5,18,0.02,14,0.2493920774674448,119340.1,57153.7
117,35,11.5,18,0.02,15,0.2493907112293799,119325.4,57145.8
118,35,11.5,18,0.02,16,0.2493883350325074,119309.8,57137.2
119,35,11.5,18,0.02,17,0.24938674613930073,119291.9,57128.1
120,35,11.5,18,0.02,18,0.24938327236828406,119274.5,57118.4
121,35,11.5,18,0.02,19,0.2493811407917382,119257.6,57109.2
122,35,11.5,18,0.02,20,0.24937885985865132,119242.2,57100.6
123,35,11.5,18,0.02,21,0.24937919677714665,119226.9,57093.8
124,35,11.5,18,0.02,22,0.24937826262207702,119210.0,57085.6
125,35,11.5,18,0.02,23,0.2493774775978233,119194.4,57078.3
126,35,11.5,18,0.02,24,0.24937592014314683,119178.8,57070.5
127,35,11.5,18,0.02,25,0.24937516009352395,119162.9,57062.5
128,35,11.5,18,0.02,26,0.24937247787237893,119146.3,57052.9
129,35,11.5,18,0.02,27,0.24937104915127728,119130.1,57044.8
130,35,11.5,18,0.02,28,0.24937108287504156,119112.3,57035.3
131,35,11.5,18,0.02,29,0.24937097241518602,119097.3,57027.9
132,35,11.5,18,0.02,30,0.24936879412341434,119081.6,57018.7
133,35,11.5,18,0.02,31,0.24936956337835822,119066.2,57012.1
134,35,11.5,18,0.02,32,0.24936777800866353,119050.0,57003.3
135,35,11.5,18,0.02,33,0.2493675665324664,119033.8,56995.8
136,35,11.5,18,0.02,34,0.249366975305067,119017.9,56988.1
137,35,11.5,18,0.02,35,0.24936590527692015,119003.6,56980.8
138,35,11.5,18,0.02,36,0.2493664466797167,118987.9,56973.9
139,35,11.5,18,0.02,37,0.2493663749765594,118973.9,56967.3
140,35,11.5,18,0.02,38,0.24936555741400923,118955.9,56958.2
141,35,11.5,18,0.02,39,0.24936499509333618,118941.5,56950.8
142,35,11.5,18,0.02,40,0.24936422892905838,118925.0,56942.9
143,35,11.5,18,0.02,41,0.2493627341496881,118907.3,56933.5
144,35,11.5,18,0.02,42,0.24936249547167327,118890.6,56925.1
145,35,11.5,18,0.02,43,0.24936186763024715,118873.1,56917.3
146,35,11.5,18,0.02,44,0.24936175468541077,118855.4,56908.2
147,35,11.5,18,0.02,45,0.249360658990323,118840.8,56900.4
148,35,11.5,18,0.02,46,0.24936092791627457,118824.5,56892.1
149,35,11.5,18,0.02,47,0.24936112084648995,118809.6,56885.1
150,35,11.5,18,0.02,48,0.24936005430764535,118793.0,56877.1
151,35,11.5,18,0.02,49,0.24935989784298562,118777.9,56869.5
152,35,11.5,18,0.02,50,0.24935941425774127,118761.1,56861.4
153,35,8.0,21,0.04,0,0.24939314327530707,119561.7,57271.5
154,35,8.0,21,0.04,1,0.24939424710092717,119545.9,57265.4
155,35,8.0,21,0.04,2,0.24939483708493815,119529.9,57258.5
156,35,8.0,21,0.04,3,0.24939568387200733,119515.1,57251.9
157,35,8.0,21,0.04,4,0.24939485138538617,119499.0,57243.9
158,35,8.0,21,0.04,5,0.24939326006420312,119483.0,57235.4
159,35,8.0,21,0.04,6,0.24939265172059155,119466.3,57226.9
160,35,8.0,21,0.04,7,0.24939215543701465,119451.0,57218.6
161,35,8.0,21,0.04,8,0.24939116305765677,119433.9,57209.6
162,35,8.0,21,0.04,9,0.2493895443484066,119417.6,57201.0
163,35,8.0,21,0.04,10,0.24938944590170498,119403.4,57194.2
164,35,8.0,21,0.04,11,0.24938961590771766,119386.7,57186.3
165,35,8.0,21,0.04,12,0.24938917587704598,119370.3,57178.6
166,35,8.0,21,0.04,13,0.2493882548584419,119356.7,57170.7
167,35,8.0,21,0.04,14,0.2493866511427582,119340.1,57161.7
168,35,8.0,21,0.04,15,0.2493860223203852,119325.4,57153.9
169,35,8.0,21,0.04,16,0.24938474360231191,119309.8,57145.4
170,35,8.0,21,0.04,17,0.24938396233794338,119291.9,57136.7
171,35,8.0,21,0.04,18,0.2493816305060657,119274.5,57127.2
172,35,8.0,21,0.04,19,0.24938035968168126,119257.6,57118.3
173,35,8.0,21,0.04,20,0.24937883381493747,119242.2,57110.0
174,35,8.0,21,0.04,21,0.24937912900866843,119226.9,57103.3
175,35,8.0,21,0.04,22,0.24937850700279948,119210.0,57095.3
176,35,8.0,21,0.04,23,0.24937807988936384,119194.4,57087.3
177,35,8.0,21,0.04,24,0.2493770587909315,119178.8,57079.5
178,35,8.0,21,0.04,25,0.24937656168488836,119162.9,57071.5
179,35,8.0,21,0.04,26,0.2493746712356358,119146.3,57062.1
180,35,8.0,21,0.04,27,0.249373847456472,119130.1,57054.2
181,35,8.0,21,0.04,28,0.24937405232065069,119112.3,57045.3
182,35,8.0,21,0.04,29,0.24937399265303214,119097.3,57037.2
183,35,8.0,21,0.04,30,0.24937237583649075,119081.6,57027.9
184,35,8.0,21,0.04,31,0.24937328923296986,119066.2,57021.1
185,35,8.0,21,0.04,32,0.24937201422230681,119050.0,57012.4
186,35,8.0,21,0.04,33,0.249371975583839,119033.8,57005.1
187,35,8.0,21,0.04,34,0.24937172105829952,119017.9,56997.5
188,35,8.0,21,0.04,35,0.24937114962870863,119003.6,56990.4
189,35,8.0,21,0.04,36,0.24937168109478997,118987.9,56983.0
190,35,8.0,21,0.04,37,0.24937172137324332,118973.9,56976.7
191,35,8.0,21,0.04,38,0.2493713040669419,118955.9,56968.1
192,35,8.0,21,0.04,39,0.24937089943710739,118941.5,56960.7
193,35,8.0,21,0.04,40,0.24937042304392915,118925.0,56953.4
194,35,8.0,21,0.04,41,0.249369151893363,118907.3,56943.8
195,35,8.0,21,0.04,42,0.2493689410349509,118890.6,56935.0
196,35,8.0,21,0.04,43,0.24936857179041244,118873.1,56927.1
197,35,8.0,21,0.04,44,0.24936859044866372,118855.4,56918.0
198,35,8.0,21,0.04,45,0.2493676359326859,118840.8,56910.4
199,35,8.0,21,0.04,46,0.24936796403824504,118824.5,56902.5
200,35,8.0,21,0.04,47,0.2493681727544593,118809.6,56895.5
201,35,8.0,21,0.04,48,0.249367394613322,118793.0,56887.7
202,35,8.0,21,0.04,49,0.24936730871974527,118777.9,56880.7
203,35,8.0,21,0.04,50,0.24936700900845804,118761.1,56873.0
204,35,11.5,15,0.06,0,0.2496159451503412,119561.7,57287.9
205,35,11.5,15,0.06,1,0.2496188768715221,119545.9,57283.0
206,35,11.5,15,0.06,2,0.24961879114805957,119529.9,57275.7
207,35,11.5,15,0.06,3,0.249619702442247,119515.1,57269.0
208,35,11.5,15,0.06,4,0.2496169310197017,119499.0,57261.6
209,35,11.5,15,0.06,5,0.24961255358583925,119483.0,57252.3
210,35,11.5,15,0.06,6,0.2496101701406693,119466.3,57244.2
211,35,11.5,15,0.06,7,0.24960795589323684,119451.0,57235.9
212,35,11.5,15,0.06,8,0.24960584574407987,119433.9,57226.7
213,35,11.5,15,0.06,9,0.2496022716542267,119417.6,57218.6
214,35,11.5,15,0.06,10,0.2496011858220712,119403.4,57211.4
215,35,11.5,15,0.06,11,0.2495998844895578,119386.7,57203.0
216,35,11.5,15,0.06,12,0.24959864719434588,119370.3,57195.3
217,35,11.5,15,0.06,13,0.2495968964377046,119356.7,57188.1
218,35,11.5,15,0.06,14,0.24959397700217326,119340.1,57179.1
219,35,11.5,15,0.06,15,0.24959239828842367,119325.4,57170.9
220,35,11.5,15,0.06,16,0.24958963793697286,119309.8,57162.4
221,35,11.5,15,0.06,17,0.24958778466295378,119291.9,57153.2
222,35,11.5,15,0.06,18,0.24958397982917022,119274.5,57143.1
223,35,11.5,15,0.06,19,0.24958162421720287,119257.6,57134.1
224,35,11.5,15,0.06,20,0.249579183615486,119242.2,57125.5
225,35,11.5,15,0.06,21,0.24957951747694915,119226.9,57118.7
226,35,11.5,15,0.06,22,0.24957849539191607,119210.0,57110.6
227,35,11.5,15,0.06,23,0.24957758360947277,119194.4,57103.4
228,35,11.5,15,0.06,24,0.24957588160792135,119178.8,57095.6
229,35,11.5,15,0.06,25,0.2495750296605995,119162.9,57087.0
230,35,11.5,15,0.06,26,0.24957214841561398,119146.3,57077.4
231,35,11.5,15,0.06,27,0.2495705946100057,119130.1,57069.3
232,35,11.5,15,0.06,28,0.2495705590938572,119112.3,57060.1
233,35,11.5,15,0.06,29,0.24957043457391972,119097.3,57052.8
234,35,11.5,15,0.06,30,0.24956812147859003,119081.6,57043.5
235,35,11.5,15,0.06,31,0.249568860297147,119066.2,57037.0
236,35,11.5,15,0.06,32,0.24956693560822343,119050.0,57028.1
237,35,11.5,15,0.06,33,0.24956669591436817,119033.8,57020.7
238,35,11.5,15,0.06,34,0.24956603056447038,119017.9,57013.2
239,35,11.5,15,0.06,35,0.2495648508092141,119003.6,57005.7
240,35,11.5,15,0.06,36,0.24956539690067253,118987.9,56998.6
241,35,11.5,15,0.06,37,0.24956529389614443,118973.9,56992.0
242,35,11.5,15,0.06,38,0.2495644006497964,118955.9,56982.7
243,35,11.5,15,0.06,39,0.2495638078647152,118941.5,56975.3
244,35,11.5,15,0.06,40,0.24956298863619897,118925.0,56967.2
245,35,11.5,15,0.06,41,0.24956146873434942,118907.3,56957.7
246,35,11.5,15,0.06,42,0.2495612648396925,118890.6,56948.9
247,35,11.5,15,0.06,43,0.24956060304956412,118873.1,56940.9
248,35,11.5,15,0.06,44,0.2495604853054229,118855.4,56932.3
249,35,11.5,15,0.06,45,0.24955937500432884,118840.8,56924.5
250,35,11.5,15,0.06,46,0.2495596476274206,118824.5,56916.2
251,35,11.5,15,0.06,47,0.2495598305624282,118809.6,56909.4
252,35,11.5,15,0.06,48,0.24955871423520276,118793.0,56901.1
253,35,11.5,15,0.06,49,0.249558564709193,118777.9,56893.7
254,35,11.5,15,0.06,50,0.24955804668103837,118761.1,56886.1
255,35,11.5,18,0.06,0,0.249542379843458,119561.7,57278.7
256,35,11.5,18,0.06,1,0.24954475612340032,119545.9,57273.2
257,35,11.5,18,0.06,2,0.2495450671438611,119529.9,57266.1
258,35,11.5,18,0.06,3,0.24954613977128898,119515.1,57259.3
259,35,11.5,18,0.06,4,0.2495440844887622,119499.0,57251.9
260,35,11.5,18,0.06,5,0.24954063814783667,119483.0,57242.9
261,35,11.5,18,0.06,6,0.24953884264185766,119466.3,57234.8
262,35,11.5,18,0.06,7,0.2495371513984622,119451.0,57226.6
263,35,11.5,18,0.06,8,0.24953539074469666,119433.9,57217.5
264,35,11.5,18,0.06,9,0.24953238269233818,119417.6,57209.2
265,35,11.5,18,0.06,10,0.24953163694387545,119403.4,57202.1
266,35,11.5,18,0.06,11,0.24953080592757929,119386.7,57193.5
267,35,11.5,18,0.06,12,0.24952980552913254,119370.3,57185.7
268,35,11.5,18,0.06,13,0.24952831743975284,119356.7,57178.1
269,35,11.5,18,0.06,14,0.2495256919350335,119340.1,57169.0
270,35,11.5,18,0.06,15,0.2495243638238048,119325.4,57161.2
271,35,11.5,18,0.06,16,0.24952198734758677,119309.8,57152.6
272,35,11.5,18,0.06,17,0.24952041048312443,119291.9,57143.5
273,35,11.5,18,0.06,18,0.24951694638044977,119274.5,57133.8
274,35,11.5,18,0.06,19,0.24951484046847616,119257.6,57124.5
275,35,11.5,18,0.06,20,0.24951260713798576,119242.2,57115.9
276,35,11.5,18,0.06,21,0.24951296004708473,119226.9,57109.1
277,35,11.5,18,0.06,22,0.24951204304748006,119210.0,57101.1
278,35,11.5,18,0.06,23,0.2495112676005272,119194.4,57093.9
279,35,11.5,18,0.06,24,0.24950971019427604,119178.8,57086.1
280,35,11.5,18,0.06,25,0.24950893906878685,119162.9,57078.1
281,35,11.5,18,0.06,26,0.24950626061856487,119146.3,57068.5
282,35,11.5,18,0.06,27,0.2495048596850864,119130.1,57060.4
283,35,11.5,18,0.06,28,0.2495048955373463,119112.3,57051.1
284,35,11.5,18,0.06,29,0.2495047902526685,119097.3,57043.7
285,35,11.5,18,0.06,30,0.24950261828947973,119081.6,57034.4
286,35,11.5,18,0.06,31,0.249503413084478,119066.2,57027.8
287,35,11.5,18,0.06,32,0.24950162795765335,119050.0,57019.0
288,35,11.5,18,0.06,33,0.24950144085993736,119033.8,57011.5
289,35,11.5,18,0.06,34,0.24950087177539712,119017.9,57003.9
290,35,11.5,18,0.06,35,0.24949982105744256,119003.6,56996.5
291,35,11.5,18,0.06,36,0.2495003699378197,118987.9,56989.5
292,35,11.5,18,0.06,37,0.2495003027844807,118973.9,56982.9
293,35,11.5,18,0.06,38,0.2494995086077776,118955.9,56973.9
294,35,11.5,18,0.06,39,0.24949894865673627,118941.5,56966.5
295,35,11.5,18,0.06,40,0.2494982035847438,118925.0,56958.5
296,35,11.5,18,0.06,41,0.2494967312936537,118907.3,56949.1
297,35,11.5,18,0.06,42,0.24949652062385033,118890.6,56940.5
298,35,11.5,18,0.06,43,0.24949591291276793,118873.1,56932.7
299,35,11.5,18,0.06,44,0.2494958179357103,118855.4,56923.7
300,35,11.5,18,0.06,45,0.24949472724621596,118840.8,56915.9
301,35,11.5,18,0.06,46,0.24949501419097145,118824.5,56907.6
302,35,11.5,18,0.06,47,0.24949520546708043,118809.6,56900.7
303,35,11.5,18,0.06,48,0.24949415218550283,118793.0,56892.4
304,35,11.5,18,0.06,49,0.24949400629534696,118777.9,56884.8
305,35,11.5,18,0.06,50,0.24949352806796848,118761.1,56876.9
306,35,8.0,18,0.04,0,0.24942673279891475,119561.7,57265.1
307,35,8.0,18,0.04,1,0.24942814635306965,119545.9,57259.3
308,35,8.0,18,0.04,2,0.24942873845223143,119529.9,57252.5
309,35,8.0,18,0.04,3,0.24942971619122128,119515.1,57245.5
310,35,8.0,18,0.04,4,0.24942863343118232,119499.0,57237.7
311,35,8.0,18,0.04,5,0.24942662052107994,119483.0,57228.7
312,35,8.0,18,0.04,6,0.24942574762464922,119466.3,57220.0
313,35,8.0,18,0.04,7,0.24942496335790673,119451.0,57211.8
314,35,8.0,18,0.04,8,0.24942378527283265,119433.9,57202.8
315,35,8.0,18,0.04,9,0.24942180993725582,119417.6,57194.2
316,35,8.0,18,0.04,10,0.24942157086707334,119403.4,57187.4
317,35,8.0,18,0.04,11,0.2494215104513946,119386.7,57179.2
318,35,8.0,18,0.04,12,0.2494209289340346,119370.3,57171.5
319,35,8.0,18,0.04,13,0.24941987496621185,119356.7,57163.6
320,35,8.0,18,0.04,14,0.24941795581198783,119340.1,57154.5
321,35,8.0,18,0.04,15,0.24941713406603855,119325.4,57146.5
322,35,8.0,18,0.04,16,0.24941554506242677,119309.8,57138.2
323,35,8.0,18,0.04,17,0.24941454264250199,119291.9,57129.3
324,35,8.0,18,0.04,18,0.24941186599918277,119274.5,57119.7
325,35,8.0,18,0.04,19,0.24941033957100273,119257.6,57110.7
326,35,8.0,18,0.04,20,0.24940859049924735,119242.2,57102.4
327,35,8.0,18,0.04,21,0.24940892170927217,119226.9,57095.7
328,35,8.0,18,0.04,22,0.2494082174324201,119210.0,57087.5
329,35,8.0,18,0.04,23,0.2494077003273897,119194.4,57079.8
330,35,8.0,18,0.04,24,0.24940650718989305,119178.8,57072.0
331,35,8.0,18,0.04,25,0.24940592839854125,119162.9,57064.0
332,35,8.0,18,0.04,26,0.24940377684190299,119146.3,57054.5
333,35,8.0,18,0.04,27,0.24940276419698826,119130.1,57046.7
334,35,8.0,18,0.04,28,0.24940292761361746,119112.3,57037.9
335,35,8.0,18,0.04,29,0.2494028581719112,119097.3,57030.1
336,35,8.0,18,0.04,30,0.24940105541721763,119081.6,57020.7
337,35,8.0,18,0.04,31,0.24940194482922656,119066.2,57013.9
338,35,8.0,18,0.04,32,0.2494005030285278,119050.0,57005.2
339,35,8.0,18,0.04,33,0.24940042229099985,119033.8,56997.7
340,35,8.0,18,0.04,34,0.2494000733344998,119017.9,56989.9
341,35,8.0,18,0.04,35,0.24939934924837118,119003.6,56982.8
342,35,8.0,18,0.04,36,0.24939989250156014,118987.9,56975.9
343,35,8.0,18,0.04,37,0.24939990184375432,118973.9,56969.6
344,35,8.0,18,0.04,38,0.24939936304618343,118955.9,56961.0
345,35,8.0,18,0.04,39,0.24939890262175216,118941.5,56953.6
346,35,8.0,18,0.04,40,0.249398340097577,118925.0,56946.2
347,35,8.0,18,0.04,41,0.24939699821619551,118907.3,56936.5
348,35,8.0,18,0.04,42,0.24939678499105553,118890.6,56927.8
349,35,8.0,18,0.04,43,0.24939633421570312,118873.1,56920.0
350,35,8.0,18,0.04,44,0.24939631173005,118855.4,56911.0
351,35,8.0,18,0.04,45,0.2493953013588305,118840.8,56903.4
352,35,8.0,18,0.04,46,0.24939561872618574,118824.5,56895.4
353,35,8.0,18,0.04,47,0.24939582561990553,118809.6,56888.4
354,35,8.0,18,0.04,48,0.24939495161229974,118793.0,56880.5
355,35,8.0,18,0.04,49,0.24939484150433003,118777.9,56873.4
356,35,8.0,18,0.04,50,0.24939447671887013,118761.1,56865.4
357,35,15.0,18,0.02,0,0.24943351060933144,119561.7,57263.5
358,35,15.0,18,0.02,1,0.24943663699445037,119545.9,57258.5
359,35,15.0,18,0.02,2,0.2494362935039766,119529.9,57251.4
360,35,15.0,18,0.02,3,0.24943707084806288,119515.1,57244.7
361,35,15.0,18,0.02,4,0.24943396274746216,119499.0,57237.3
362,35,15.0,18,0.02,5,0.2494291102547101,119483.0,57228.1
363,35,15.0,18,0.02,6,0.24942646756718984,119466.3,57220.1
364,35,15.0,18,0.02,7,0.2494240051360587,119451.0,57211.7
365,35,15.0,18,0.02,8,0.2494216709748216,119433.9,57202.4
366,35,15.0,18,0.02,9,0.24941782272803875,119417.6,57194.3
367,35,15.0,18,0.02,10,0.2494165344788833,119403.4,57187.0
368,35,15.0,18,0.02,11,0.24941497493630246,119386.7,57178.6
369,35,15.0,18,0.02,12,0.24941362136117587,119370.3,57170.9
370,35,15.0,18,0.02,13,0.24941175896065365,119356.7,57163.8
371,35,15.0,18,0.02,14,0.24940868080869855,119340.1,57154.8
372,35,15.0,18,0.02,15,0.2494069456109747,119325.4,57146.7
373,35,15.0,18,0.02,16,0.24940400761645223,119309.8,57138.1
374,35,15.0,18,0.02,17,0.24940200952507063,119291.9,57128.8
375,35,15.0,18,0.02,18,0.24939805542296295,119274.5,57118.8
376,35,15.0,18,0.02,19,0.24939554801421307,119257.6,57109.8
377,35,15.0,18,0.02,20,0.24939296976032752,119242.2,57101.2
378,35,15.0,18,0.02,21,0.24939326726901503,119226.9,57094.4
379,35,15.0,18,0.02,22,0.2493921651367274,119210.0,57086.1
380,35,15.0,18,0.02,23,0.24939117670823469,119194.4,57078.8
381,35,15.0,18,0.02,24,0.24938940733826492,119178.8,57071.2
382,35,15.0,18,0.02,25,0.24938852026229727,119162.9,57062.6
383,35,15.0,18,0.02,26,0.24938555099211715,119146.3,57053.2
384,35,15.0,18,0.02,27,0.2493838942285495,119130.1,57045.0
385,35,15.0,18,0.02,28,0.24938382215363258,119112.3,57035.9
386,35,15.0,18,0.02,29,0.24938367361343752,119097.3,57028.6
387,35,15.0,18,0.02,30,0.2493812879046803,119081.6,57019.3
388,35,15.0,18,0.02,31,0.24938196945043595,119066.2,57012.8
389,35,15.0,18,0.02,32,0.2493799868365522,119050.0,57004.1
390,35,15.0,18,0.02,33,0.249379695414703,119033.8,56996.7
391,35,15.0,18,0.02,34,0.24937895552327455,119017.9,56989.2
392,35,15.0,18,0.02,35,0.24937769040120444,119003.6,56981.7
393,35,15.0,18,0.02,36,0.24937821383897957,118987.9,56974.6
394,35,15.0,18,0.02,37,0.24937808883674556,118973.9,56968.1
395,35,15.0,18,0.02,38,0.24937711619496938,118955.9,56958.7
396,35,15.0,18,0.02,39,0.2493765025482566,118941.5,56951.2
397,35,15.0,18,0.02,40,0.24937562155423523,118925.0,56943.0
398,35,15.0,18,0.02,41,0.24937405094213258,118907.3,56933.5
399,35,15.0,18,0.02,42,0.2493738021533966,118890.6,56924.8
400,35,15.0,18,0.02,43,0.24937308994236695,118873.1,56916.6
401,35,15.0,18,0.02,44,0.24937293007245748,118855.4,56907.7
402,35,15.0,18,0.02,45,0.24937180620510663,118840.8,56899.9
403,35,15.0,18,0.02,46,0.24937204673858754,118824.5,56891.7
404,35,15.0,18,0.02,47,0.2493722181767304,118809.6,56885.0
405,35,15.0,18,0.02,48,0.24937105199896958,118793.0,56876.9
406,35,15.0,18,0.02,49,0.249370875010868,118777.9,56869.5
407,35,15.0,18,0.02,50,0.24937033444303017,118761.1,56861.7
408,35,15.0,21,0.02,0,0.2494169524227629,119561.7,57268.0
409,35,15.0,21,0.02,1,0.24941962151453106,119545.9,57262.8
410,35,15.0,21,0.02,2,0.2494197206182566,119529.9,57255.7
411,35,15.0,21,0.02,3,0.2494207087432839,119515.1,57249.0
412,35,15.0,21,0.02,4,0.249418280074511,119499.0,57241.6
413,35,15.0,21,0.02,5,0.24941426554844845,119483.0,57232.5
414,35,15.0,21,0.02,6,0.24941215421817858,119466.3,57224.4
415,35,15.0,21,0.02,7,0.24941014388193622,119451.0,57216.2
416,35,15.0,21,0.02,8,0.24940811924513043,119433.9,57206.9
417,35,15.0,21,0.02,9,0.24940474952608227,119417.6,57198.7
418,35,15.0,21,0.02,10,0.24940377512035763,119403.4,57191.5
419,35,15.0,21,0.02,11,0.24940262889920026,119386.7,57183.0
420,35,15.0,21,0.02,12,0.24940148858486366,119370.3,57175.3
421,35,15.0,21,0.02,13,0.24939985604901813,119356.7,57168.1
422,35,15.0,21,0.02,14,0.2493970061810377,119340.1,57159.0
423,35,15.0,21,0.02,15,0.24939547851016272,119325.4,57150.9
424,35,15.0,21,0.02,16,0.2493928609864285,119309.8,57142.4
425,35,15.0,21,0.02,17,0.2493910945333194,119291.9,57133.2
426,35,15.0,21,0.02,18,0.2493874055295202,119274.5,57123.1
427,35,15.0,21,0.02,19,0.24938510713044643,119257.6,57114.0
428,35,15.0,21,0.02,20,0.24938269172625635,119242.2,57105.4
429,35,15.0,21,0.02,21,0.24938301515820666,119226.9,57098.6
430,35,15.0,21,0.02,22,0.2493820092263661,119210.0,57090.5
431,35,15.0,21,0.02,23,0.24938113822919475,119194.4,57083.3
432,35,15.0,21,0.02,24,0.2493794849469813,119178.8,57075.5
433,35,15.0,21,0.02,25,0.2493786699887121,119162.9,57067.0
434,35,15.0,21,0.02,26,0.2493758568582598,119146.3,57057.4
435,35,15.0,21,0.02,27,0.2493743241527721,119130.1,57049.2
436,35,15.0,21,0.02,28,0.24937431506486507,119112.3,57040.0
437,35,15.0,21,0.02,29,0.24937418940998043,119097.3,57032.7
438,35,15.0,21,0.02,30,0.2493719175238715,119081.6,57023.4
439,35,15.0,21,0.02,31,0.24937264922098823,119066.2,57016.9
440,35,15.0,21,0.02,32,0.24937077655498935,119050.0,57008.0
441,35,15.0,21,0.02,33,0.24937052964617618,119033.8,57000.5
442,35,15.0,21,0.02,34,0.24936987203865515,119017.9,56992.9
443,35,15.0,21,0.02,35,0.24936871272017624,119003.6,56985.4
444,35,15.0,21,0.02,36,0.24936924821078815,118987.9,56978.4
445,35,15.0,21,0.02,37,0.2493691535505788,118973.9,56971.8
446,35,15.0,21,0.02,38,0.24936826514072327,118955.9,56962.5
447,35,15.0,21,0.02,39,0.2493676793696639,118941.5,56955.1
448,35,15.0,21,0.02,40,0.249366861151502,118925.0,56947.2
449,35,15.0,21,0.02,41,0.24936533128309546,118907.3,56937.7
450,35,15.0,21,0.02,42,0.249365087462082,118890.6,56929.0
451,35,15.0,21,0.02,43,0.24936441911382562,118873.1,56921.0
452,35,15.0,21,0.02,44,0.2493642851323532,118855.4,56911.9
453,35,15.0,21,0.02,45,0.24936317538820493,118840.8,56904.1
454,35,15.0,21,0.02,46,0.2493634315263042,118824.5,56895.8
455,35,15.0,21,0.02,47,0.2493636162019645,118809.6,56888.9
456,35,15.0,21,0.02,48,0.24936250397122434,118793.0,56880.9
457,35,15.0,21,0.02,49,0.24936233715025144,118777.9,56873.4
458,35,15.0,21,0.02,50,0.2493618274323844,118761.1,56865.5
459,35,8.0,15,0.04,0,0.24947402480557837,119561.7,57283.6
460,35,8.0,15,0.04,1,0.24947588433854412,119545.9,57277.9
461,35,8.0,15,0.04,2,0.24947640099208704,119529.9,57270.8
462,35,8.0,15,0.04,3,0.24947748013987248,119515.1,57263.8
463,35,8.0,15,0.04,4,0.24947598404191668,119499.0,57256.0
464,35,8.0,15,0.04,5,0.2494733287836784,119483.0,57246.8
465,35,8.0,15,0.04,6,0.2494720433664336,119466.3,57238.3
466,35,8.0,15,0.04,7,0.24947083745355045,119451.0,57230.0
467,35,8.0,15,0.04,8,0.2494693890438527,119433.9,57221.0
468,35,8.0,15,0.04,9,0.24946692123461572,119417.6,57212.5
469,35,8.0,15,0.04,10,0.24946645757785452,119403.4,57205.6
470,35,8.0,15,0.04,11,0.24946604474681008,119386.7,57197.3
471,35,8.0,15,0.04,12,0.2494652649492291,119370.3,57189.6
472,35,8.0,15,0.04,13,0.24946401236811258,119356.7,57181.7
473,35,8.0,15,0.04,14,0.24946172336206698,119340.1,57172.5
474,35,8.0,15,0.04,15,0.2494606500824914,119325.4,57164.6
475,35,8.0,15,0.04,16,0.24945866837993158,119309.8,57156.0
476,35,8.0,15,0.04,17,0.24945737964161388,119291.9,57146.8
477,35,8.0,15,0.04,18,0.2494542951720966,119274.5,57137.1
478,35,8.0,15,0.04,19,0.2494524670946309,119257.6,57127.9
479,35,8.0,15,0.04,20,0.24945046298293122,119242.2,57119.4
480,35,8.0,15,0.04,21,0.2494508157896937,119226.9,57112.5
481,35,8.0,15,0.04,22,0.24945000538561488,119210.0,57104.3
482,35,8.0,15,0.04,23,0.24944936350175356,119194.4,57096.9
483,35,8.0,15,0.04,24,0.2494479768854842,119178.8,57089.1
484,35,8.0,15,0.04,25,0.24944729867427357,119162.9,57081.0
485,35,8.0,15,0.04,26,0.24944486328563648,119146.3,57071.3
486,35,8.0,15,0.04,27,0.24944364194129762,119130.1,57063.5
487,35,8.0,15,0.04,28,0.24944374477795866,119112.3,57054.0
488,35,8.0,15,0.04,29,0.24944365821877704,119097.3,57046.5
489,35,8.0,15,0.04,30,0.24944165562045312,119081.6,57037.3
490,35,8.0,15,0.04,31,0.24944250129231316,119066.2,57030.5
491,35,8.0,15,0.04,32,0.24944087635016166,119050.0,57021.7
492,35,8.0,15,0.04,33,0.24944074191844962,119033.8,57014.3
493,35,8.0,15,0.04,34,0.24944027884353753,119017.9,57006.6
494,35,8.0,15,0.04,35,0.24943938071313282,119003.6,56999.3
495,35,8.0,15,0.04,36,0.2494399290725265,118987.9,56992.3
496,35,8.0,15,0.04,37,0.24943989952595785,118973.9,56985.8
497,35,8.0,15,0.04,38,0.24943922354877798,118955.9,56976.9
498,35,8.0,15,0.04,39,0.24943870704875354,118941.5,56969.6
499,35,8.0,15,0.04,40,0.24943804705514766,118925.0,56962.1
500,35,8.0,15,0.04,41,0.24943663261593962,118907.3,56952.2
501,35,8.0,15,0.04,42,0.2494364179402579,118890.6,56943.6
502,35,8.0,15,0.04,43,0.2494358802864644,118873.1,56935.9
503,35,8.0,15,0.04,44,0.2494358158693569,118855.4,56926.9
504,35,8.0,15,0.04,45,0.24943475682127586,118840.8,56919.2
505,35,8.0,15,0.04,46,0.2494350584645149,118824.5,56911.1
506,35,8.0,15,0.04,47,0.24943525840855943,118809.6,56904.0
507,35,8.0,15,0.04,48,0.24943428489374025,118793.0,56895.9
508,35,8.0,15,0.04,49,0.24943415195351415,118777.9,56888.6
509,35,8.0,15,0.04,50,0.24943372346453593,118761.1,56880.7
510,35,15.0,15,0.02,0,0.2494551425917983,119561.7,57283.0
511,35,15.0,15,0.02,1,0.24945874690887543,119545.9,57277.9
512,35,15.0,15,0.02,2,0.24945764540168774,119529.9,57270.8
513,35,15.0,15,0.02,3,0.24945800146729122,119515.1,57264.3
514,35,15.0,15,0.02,4,0.24945398253927453,119499.0,57256.9
515,35,15.0,15,0.02,5,0.24944808998238766,119483.0,57248.0
516,35,15.0,15,0.02,6,0.24944479756762564,119466.3,57239.9
517,35,15.0,15,0.02,7,0.24944182762703687,119451.0,57231.5
518,35,15.0,15,0.02,8,0.24943912856506695,119433.9,57222.2
519,35,15.0,15,0.02,9,0.249434739374553,119417.6,57214.4
520,35,15.0,15,0.02,10,0.24943304915639622,119403.4,57207.0
521,35,15.0,15,0.02,11,0.24943098746017128,119386.7,57198.4
522,35,15.0,15,0.02,12,0.24942937439531643,119370.3,57190.5
523,35,15.0,15,0.02,13,0.2494272347613303,119356.7,57183.4
524,35,15.0,15,0.02,14,0.2494239399328991,119340.1,57174.6
525,35,15.0,15,0.02,15,0.2494219854414237,119325.4,57166.6
526,35,15.0,15,0.02,16,0.24941870181624273,119309.8,57158.0
527,35,15.0,15,0.02,17,0.249416461478729,119291.9,57148.8
528,35,15.0,15,0.02,18,0.24941224658336697,119274.5,57138.7
529,35,15.0,15,0.02,19,0.24940952731247584,119257.6,57129.5
530,35,15.0,15,0.02,20,0.2494067817771967,119242.2,57120.9
531,35,15.0,15,0.02,21,0.24940703663862712,119226.9,57114.0
532,35,15.0,15,0.02,22,0.249405829048953,119210.0,57105.7
533,35,15.0,15,0.02,23,0.24940470981471846,119194.4,57098.3
534,35,15.0,15,0.02,24,0.24940282747587889,119178.8,57090.7
535,35,15.0,15,0.02,25,0.24940186939007347,119162.9,57082.0
536,35,15.0,15,0.02,26,0.24939875076155,119146.3,57072.7
537,35,15.0,15,0.02,27,0.24939697363958596,119130.1,57064.5
538,35,15.0,15,0.02,28,0.24939682639096228,119112.3,57055.4
539,35,15.0,15,0.02,29,0.2493966489169067,119097.3,57047.9
540,35,15.0,15,0.02,30,0.24939415028931836,119081.6,57038.6
541,35,15.0,15,0.02,31,0.24939477366646828,119066.2,57032.1
542,35,15.0,15,0.02,32,0.2493926781818323,119050.0,57023.3
543,35,15.0,15,0.02,33,0.2493923358277197,119033.8,57015.9
544,35,15.0,15,0.02,34,0.24939151249907568,119017.9,57008.4
545,35,15.0,15,0.02,35,0.24939014718567262,119003.6,57000.9
546,35,15.0,15,0.02,36,0.24939065345411676,118987.9,56993.8
547,35,15.0,15,0.02,37,0.2493904942365374,118973.9,56987.3
548,35,15.0,15,0.02,38,0.24938944071042574,118955.9,56978.0
549,35,15.0,15,0.02,39,0.24938880228062063,118941.5,56970.5
550,35,15.0,15,0.02,40,0.24938785651118572,118925.0,56962.4
551,35,15.0,15,0.02,41,0.2493862447277825,118907.3,56952.8
552,35,15.0,15,0.02,42,0.24938599196054625,118890.6,56944.1
553,35,15.0,15,0.02,43,0.24938524406300827,118873.1,56935.9
554,35,15.0,15,0.02,44,0.24938505873936068,118855.4,56927.0
555,35,15.0,15,0.02,45,0.24938392454812136,118840.8,56919.2
556,35,15.0,15,0.02,46,0.2493841472161497,118824.5,56910.8
557,35,15.0,15,0.02,47,0.24938430485867435,118809.6,56904.2
558,35,15.0,15,0.02,48,0.24938308920975624,118793.0,56895.8
559,35,15.0,15,0.02,49,0.2493829077381875,118777.9,56888.3
560,35,15.0,15,0.02,50,0.24938233697457396,118761.1,56880.4
561,35,8.0,21,0.06,0,0.24945918621013918,119561.7,57272.3
562,35,8.0,21,0.06,1,0.24946031198052196,119545.9,57266.1
563,35,8.0,21,0.06,2,0.24946090519313735,119529.9,57259.1
564,35,8.0,21,0.06,3,0.24946175581943825,119515.1,57252.5
565,35,8.0,21,0.06,4,0.24946090408928204,119499.0,57244.5
566,35,8.0,21,0.06,5,0.24945931085766038,119483.0,57236.1
567,35,8.0,21,0.06,6,0.24945867380846912,119466.3,57227.6
568,35,8.0,21,0.06,7,0.24945817233238837,119451.0,57219.3
569,35,8.0,21,0.06,8,0.2494572042933323,119433.9,57210.5
570,35,8.0,21,0.06,9,0.24945558949174956,119417.6,57201.9
571,35,8.0,21,0.06,10,0.24945550365888694,119403.4,57195.1
572,35,8.0,21,0.06,11,0.2494556884773543,119386.7,57187.2
573,35,8.0,21,0.06,12,0.24945524148496528,119370.3,57179.3
574,35,8.0,21,0.06,13,0.24945431119176237,119356.7,57171.4
575,35,8.0,21,0.06,14,0.2494527252150543,119340.1,57162.5
576,35,8.0,21,0.06,15,0.24945212208775644,119325.4,57154.7
577,35,8.0,21,0.06,16,0.24945083920429534,119309.8,57146.3
578,35,8.0,21,0.06,17,0.24945006093646796,119291.9,57137.5
579,35,8.0,21,0.06,18,0.24944773620770738,119274.5,57128.1
580,35,8.0,21,0.06,19,0.24944647593712502,119257.6,57119.2
581,35,8.0,21,0.06,20,0.24944498506154805,119242.2,57110.9
582,35,8.0,21,0.06,21,0.24944528576153063,119226.9,57104.2
583,35,8.0,21,0.06,22,0.2494446698216644,119210.0,57096.1
584,35,8.0,21,0.06,23,0.24944424873765225,119194.4,57088.2
585,35,8.0,21,0.06,24,0.24944321979796596,119178.8,57080.4
586,35,8.0,21,0.06,25,0.24944270918551598,119162.9,57072.4
587,35,8.0,21,0.06,26,0.2494408195656964,119146.3,57063.0
588,35,8.0,21,0.06,27,0.24944000939401537,119130.1,57055.1
589,35,8.0,21,0.06,28,0.24944022024356713,119112.3,57046.2
590,35,8.0,21,0.06,29,0.2494401604368694,119097.3,57038.0
591,35,8.0,21,0.06,30,0.2494385437781431,119081.6,57028.7
592,35,8.0,21,0.06,31,0.2494394739952112,119066.2,57021.9
593,35,8.0,21,0.06,32,0.24943820381559792,119050.0,57013.2
594,35,8.0,21,0.06,33,0.24943818005501378,119033.8,57005.9
595,35,8.0,21,0.06,34,0.2494379348178796,119017.9,56998.3
596,35,8.0,21,0.06,35,0.24943736778988246,119003.6,56991.2
597,35,8.0,21,0.06,36,0.2494379015473181,118987.9,56983.7
598,35,8.0,21,0.06,37,0.24943794491736943,118973.9,56977.4
599,35,8.0,21,0.06,38,0.2494375368264766,118955.9,56968.8
600,35,8.0,21,0.06,39,0.2494371305034048,118941.5,56961.4
601,35,8.0,21,0.06,40,0.24943666373762147,118925.0,56954.0
602,35,8.0,21,0.06,41,0.24943540421850469,118907.3,56944.3
603,35,8.0,21,0.06,42,0.24943520535877753,118890.6,56935.5
604,35,8.0,21,0.06,43,0.24943484397649232,118873.1,56927.6
605,35,8.0,21,0.06,44,0.24943487285994909,118855.4,56918.6
606,35,8.0,21,0.06,45,0.2494339234745188,118840.8,56911.0
607,35,8.0,21,0.06,46,0.24943426135589514,118824.5,56903.1
608,35,8.0,21,0.06,47,0.2494344646327372,118809.6,56896.1
609,35,8.0,21,0.06,48,0.24943369099061904,118793.0,56888.2
610,35,8.0,21,0.06,49,0.24943360272018747,118777.9,56881.2
611,35,8.0,21,0.06,50,0.249433306205959,118761.1,56873.2
612,35,11.5,21,0.04,0,0.2494265019827051,119561.7,57278.5
613,35,11.5,21,0.04,1,0.2494284165938924,119545.9,57272.8
614,35,11.5,21,0.04,2,0.24942891281180507,119529.9,57265.8
615,35,11.5,21,0.04,3,0.24942999688178852,119515.1,57258.9
616,35,11.5,21,0.04,4,0.24942844555413202,119499.0,57251.3
617,35,11.5,21,0.04,5,0.24942568256673545,119483.0,57242.2
618,35,11.5,21,0.04,6,0.2494243472651815,119466.3,57233.7
619,35,11.5,21,0.04,7,0.24942307602287034,119451.0,57225.3
620,35,11.5,21,0.04,8,0.24942156489845976,119433.9,57216.2
621,35,11.5,21,0.04,9,0.2494190159358607,119417.6,57207.7
622,35,11.5,21,0.04,10,0.24941850456963546,119403.4,57200.8
623,35,11.5,21,0.04,11,0.24941802350357406,119386.7,57192.4
624,35,11.5,21,0.04,12,0.24941721614580206,119370.3,57184.8
625,35,11.5,21,0.04,13,0.24941593653438984,119356.7,57177.0
626,35,11.5,21,0.04,14,0.24941358229053803,119340.1,57167.9
627,35,11.5,21,0.04,15,0.24941245447223812,119325.4,57160.0
628,35,11.5,21,0.04,16,0.24941041547817377,119309.8,57151.4
629,35,11.5,21,0.04,17,0.2494090798070568,119291.9,57142.2
630,35,11.5,21,0.04,18,0.2494059328283444,119274.5,57132.4
631,35,11.5,21,0.04,19,0.2494040522011709,119257.6,57123.2
632,35,11.5,21,0.04,20,0.24940199056663795,119242.2,57114.6
633,35,11.5,21,0.04,21,0.24940233917754276,119226.9,57107.7
634,35,11.5,21,0.04,22,0.24940150650725706,119210.0,57099.6
635,35,11.5,21,0.04,23,0.2494008409641672,119194.4,57092.3
636,35,11.5,21,0.04,24,0.24939942983053812,119178.8,57084.5
637,35,11.5,21,0.04,25,0.249398743425149,119162.9,57076.3
638,35,11.5,21,0.04,26,0.2493962683285024,119146.3,57066.6
639,35,11.5,21,0.04,27,0.24939500722058447,119130.1,57058.7
640,35,11.5,21,0.04,28,0.24939509805937762,119112.3,57049.2
641,35,11.5,21,0.04,29,0.24939500708572684,119097.3,57041.7
642,35,11.5,21,0.04,30,0.24939297571166485,119081.6,57032.5
643,35,11.5,21,0.04,31,0.24939380275571127,119066.2,57025.7
644,35,11.5,21,0.04,32,0.2493921513169572,119050.0,57016.9
645,35,11.5,21,0.04,33,0.24939199853033633,119033.8,57009.5
646,35,11.5,21,0.04,34,0.24939151043017715,119017.9,57001.7
647,35,11.5,21,0.04,35,0.2493905817102567,119003.6,56994.4
648,35,11.5,21,0.04,36,0.24939112740646036,118987.9,56987.4
649,35,11.5,21,0.04,37,0.24939109017146385,118973.9,56980.9
650,35,11.5,21,0.04,38,0.24939038655180673,118955.9,56971.9
651,35,11.5,21,0.04,39,0.2493898621339666,118941.5,56964.6
652,35,11.5,21,0.04,40,0.24938918042317804,118925.0,56956.8
653,35,11.5,21,0.04,41,0.2493877472663248,118907.3,56946.9
654,35,11.5,21,0.04,42,0.24938752151138593,118890.6,56938.3
655,35,11.5,21,0.04,43,0.24938696476272337,118873.1,56930.6
656,35,11.5,21,0.04,44,0.24938688715956533,118855.4,56921.6
657,35,11.5,21,0.04,45,0.24938581978639562,118840.8,56913.9
658,35,11.5,21,0.04,46,0.24938611166757169,118824.5,56905.9
659,35,11.5,21,0.04,47,0.24938631176386505,118809.6,56898.8
660,35,11.5,21,0.04,48,0.2493853199909828,118793.0,56890.8
661,35,11.5,21,0.04,49,0.2493851816423894,118777.9,56883.5
662,35,11.5,21,0.04,50,0.24938474258506735,118761.1,56875.6
663,35,11.5,15,0.04,0,0.2495056536673156,119561.7,57288.1
664,35,11.5,15,0.04,1,0.24950855631960622,119545.9,57283.2
665,35,11.5,15,0.04,2,0.24950846478830865,119529.9,57276.0
666,35,11.5,15,0.04,3,0.24950938114885726,119515.1,57269.3
667,35,11.5,15,0.04,4,0.24950662023838732,119499.0,57261.9
668,35,11.5,15,0.04,5,0.24950223539043748,119483.0,57252.6
669,35,11.5,15,0.04,6,0.2494998609597774,119466.3,57244.5
670,35,11.5,15,0.04,7,0.24949764096132432,119451.0,57236.2
671,35,11.5,15,0.04,8,0.2494955033516177,119433.9,57226.9
672,35,11.5,15,0.04,9,0.24949192328350894,119417.6,57218.8
673,35,11.5,15,0.04,10,0.2494908213489361,119403.4,57211.6
674,35,11.5,15,0.04,11,0.24948950728334002,119386.7,57203.2
675,35,11.5,15,0.04,12,0.24948826509608996,119370.3,57195.4
676,35,11.5,15,0.04,13,0.24948652083084838,119356.7,57188.2
677,35,11.5,15,0.04,14,0.24948358136541557,119340.1,57179.2
678,35,11.5,15,0.04,15,0.24948197787565313,119325.4,57171.0
679,35,11.5,15,0.04,16,0.24947921068568152,119309.8,57162.5
680,35,11.5,15,0.04,17,0.24947734360845836,119291.9,57153.3
681,35,11.5,15,0.04,18,0.24947353228504734,119274.5,57143.2
682,35,11.5,15,0.04,19,0.24947115070804843,119257.6,57134.2
683,35,11.5,15,0.04,20,0.2494686853918457,119242.2,57125.7
684,35,11.5,15,0.04,21,0.24946901017562184,119226.9,57118.9
685,35,11.5,15,0.04,22,0.24946797035386634,119210.0,57110.8
686,35,11.5,15,0.04,23,0.24946705055337173,119194.4,57103.6
687,35,11.5,15,0.04,24,0.2494653444840152,119178.8,57096.0
688,35,11.5,15,0.04,25,0.24946448861896395,119162.9,57087.4
689,35,11.5,15,0.04,26,0.24946160218253183,119146.3,57077.8
690,35,11.5,15,0.04,27,0.2494600275589213,119130.1,57069.6
691,35,11.5,15,0.04,28,0.24945998795276464,119112.3,57060.2
692,35,11.5,15,0.04,29,0.24945985525752948,119097.3,57052.9
693,35,11.5,15,0.04,30,0.2494575330625755,119081.6,57043.6
694,35,11.5,15,0.04,31,0.24945825742319522,119066.2,57037.1
695,35,11.5,15,0.04,32,0.2494563289192416,119050.0,57028.2
696,35,11.5,15,0.04,33,0.24945607714986565,119033.8,57020.8
697,35,11.5,15,0.04,34,0.24945539516978954,119017.9,57013.3
698,35,11.5,15,0.04,35,0.24945419896816245,119003.6,57005.8
699,35,11.5,15,0.04,36,0.24945473290860504,118987.9,56998.7
700,35,11.5,15,0.04,37,0.2494546264359557,118973.9,56992.1
701,35,11.5,15,0.04,38,0.24945371296767266,118955.9,56982.9
702,35,11.5,15,0.04,39,0.249453114870061,118941.5,56975.5
703,35,11.5,15,0.04,40,0.24945228096971456,118925.0,56967.4
704,35,11.5,15,0.04,41,0.24945074601542316,118907.3,56957.9
705,35,11.5,15,0.04,42,0.2494505171803117,118890.6,56949.1
706,35,11.5,15,0.04,43,0.24944984103397352,118873.1,56941.1
707,35,11.5,15,0.04,44,0.24944970403721042,118855.4,56932.1
708,35,11.5,15,0.04,45,0.24944858864157576,118840.8,56924.3
709,35,11.5,15,0.04,46,0.24944884880067839,118824.5,56916.0
710,35,11.5,15,0.04,47,0.24944902603959304,118809.6,56909.2
711,35,11.5,15,0.04,48,0.24944789617142518,118793.0,56900.9
712,35,11.5,15,0.04,49,0.2494477318634009,118777.9,56893.5
713,35,11.5,15,0.04,50,0.24944721053614835,118761.1,56885.7
714,35,11.5,18,0.04,0,0.24945943402523535,119561.7,57259.7
715,35,11.5,18,0.04,1,0.24946178745944972,119545.9,57254.2
716,35,11.5,18,0.04,2,0.24946209631771654,119529.9,57247.2
717,35,11.5,18,0.04,3,0.24946317037675794,119515.1,57240.4
718,35,11.5,18,0.04,4,0.24946113125052674,119499.0,57233.0
719,35,11.5,18,0.04,5,0.24945768108237173,119483.0,57224.0
720,35,11.5,18,0.04,6,0.24945590252150085,119466.3,57215.9
721,35,11.5,18,0.04,7,0.24945421052883748,119451.0,57207.7
722,35,11.5,18,0.04,8,0.2494524254116139,119433.9,57198.5
723,35,11.5,18,0.04,9,0.2494494122365659,119417.6,57190.2
724,35,11.5,18,0.04,10,0.24944865304471647,119403.4,57183.1
725,35,11.5,18,0.04,11,0.24944781032050015,119386.7,57174.5
726,35,11.5,18,0.04,12,0.24944681020748605,119370.3,57166.7
727,35,11.5,18,0.04,13,0.2494453285157569,119356.7,57159.1
728,35,11.5,18,0.04,14,0.24944268577053536,119340.1,57149.9
729,35,11.5,18,0.04,15,0.24944133590746764,119325.4,57142.0
730,35,11.5,18,0.04,16,0.24943895687382117,119309.8,57133.4
731,35,11.5,18,0.04,17,0.24943737147008666,119291.9,57124.3
732,35,11.5,18,0.04,18,0.2494339014063968,119274.5,57114.5
733,35,11.5,18,0.04,19,0.24943177787199583,119257.6,57105.2
734,35,11.5,18,0.04,20,0.24942951953783982,119242.2,57096.6
735,35,11.5,18,0.04,21,0.24942986553407115,119226.9,57089.8
736,35,11.5,18,0.04,22,0.24942893676492733,119210.0,57081.7
737,35,11.5,18,0.04,23,0.2494281552277562,119194.4,57074.4
738,35,11.5,18,0.04,24,0.2494265978261228,119178.8,57066.6
739,35,11.5,18,0.04,25,0.24942582876737104,119162.9,57058.6
740,35,11.5,18,0.04,26,0.2494231472320767,119146.3,57049.0
741,35,11.5,18,0.04,27,0.2494217298829855,119130.1,57040.9
742,35,11.5,18,0.04,28,0.249421762393475,119112.3,57031.4
743,35,11.5,18,0.04,29,0.24942165264095006,119097.3,57024.0
744,35,11.5,18,0.04,30,0.24941947570425196,119081.6,57014.8
745,35,11.5,18,0.04,31,0.24942025704114995,119066.2,57008.2
746,35,11.5,18,0.04,32,0.24941846910040155,119050.0,56999.5
747,35,11.5,18,0.04,33,0.2494182703587427,119033.8,56992.0
748,35,11.5,18,0.04,34,0.2494176886670504,119017.9,56984.3
749,35,11.5,18,0.04,35,0.2494166266546854,119003.6,56977.0
750,35,11.5,18,0.04,36,0.24941716847347753,118987.9,56970.0
751,35,11.5,18,0.04,37,0.24941709862446676,118973.9,56963.4
752,35,11.5,18,0.04,38,0.24941629024100515,118955.9,56954.3
753,35,11.5,18,0.04,39,0.2494157273215946,118941.5,56946.9
754,35,11.5,18,0.04,40,0.24941497071458424,118925.0,56939.0
755,35,11.5,18,0.04,41,0.24941348617554043,118907.3,56929.6
756,35,11.5,18,0.04,42,0.24941325773647832,118890.6,56921.1
757,35,11.5,18,0.04,43,0.2494126391406848,118873.1,56913.3
758,35,11.5,18,0.04,44,0.24941253070440758,118855.4,56904.3
759,35,11.5,18,0.04,45,0.24941143610048178,118840.8,56896.5
760,35,11.5,18,0.04,46,0.24941171309713886,118824.5,56888.2
761,35,11.5,18,0.04,47,0.24941190271792396,118809.6,56881.3
762,35,11.5,18,0.04,48,0.24941084011420825,118793.0,56873.2
763,35,11.5,18,0.04,49,0.24941068615075576,118777.9,56865.6
764,35,11.5,18,0.04,50,0.24941020486934212,118761.1,56857.6
765,35,8.0,18,0.06,0,0.24951141128208695,119561.7,57272.1
766,35,8.0,18,0.06,1,0.24951285143988514,119545.9,57266.3
767,35,8.0,18,0.06,2,0.2495134492148213,119529.9,57259.4
768,35,8.0,18,0.06,3,0.24951442695177564,119515.1,57252.4
769,35,8.0,18,0.06,4,0.24951332562527367,119499.0,57244.6
770,35,8.0,18,0.06,5,0.24951131280235192,119483.0,57235.6
771,35,8.0,18,0.06,6,0.2495104129647235,119466.3,57226.9
772,35,8.0,18,0.06,7,0.2495096252193986,119451.0,57218.7
773,35,8.0,18,0.06,8,0.24950847453646446,119433.9,57209.9
774,35,8.0,18,0.06,9,0.2495065023831665,119417.6,57201.3
775,35,8.0,18,0.06,10,0.24950627835765915,119403.4,57194.5
776,35,8.0,18,0.06,11,0.2495062310576607,119386.7,57186.3
777,35,8.0,18,0.06,12,0.2495056454051432,119370.3,57178.5
778,35,8.0,18,0.06,13,0.249504581244164,119356.7,57170.6
779,35,8.0,18,0.06,14,0.249502681792998,119340.1,57161.5
780,35,8.0,18,0.06,15,0.24950188866227987,119325.4,57153.5
781,35,8.0,18,0.06,16,0.2495002982699981,119309.8,57145.3
782,35,8.0,18,0.06,17,0.24949930116466904,119291.9,57136.5
783,35,8.0,18,0.06,18,0.2494966323602489,119274.5,57127.0
784,35,8.0,18,0.06,19,0.24949512216825598,119257.6,57118.0
785,35,8.0,18,0.06,20,0.24949340847296986,119242.2,57109.6
786,35,8.0,18,0.06,21,0.2494937454008918,119226.9,57102.9
787,35,8.0,18,0.06,22,0.2494930511170427,119210.0,57094.7
788,35,8.0,18,0.06,23,0.24949254027384232,119194.4,57086.9
789,35,8.0,18,0.06,24,0.2494913403994022,119178.8,57079.1
790,35,8.0,18,0.06,25,0.2494907523340372,119162.9,57071.0
791,35,8.0,18,0.06,26,0.24948860241095178,119146.3,57061.5
792,35,8.0,18,0.06,27,0.2494876065471996,119130.1,57053.7
793,35,8.0,18,0.06,28,0.2494877759927729,119112.3,57044.9
794,35,8.0,18,0.06,29,0.24948770864448427,119097.3,57037.1
795,35,8.0,18,0.06,30,0.2494859078689471,119081.6,57027.8
796,35,8.0,18,0.06,31,0.24948681410036175,119066.2,57021.0
797,35,8.0,18,0.06,32,0.24948537806956167,119050.0,57012.3
798,35,8.0,18,0.06,33,0.24948531157039366,119033.8,57004.8
799,35,8.0,18,0.06,34,0.24948497398929775,119017.9,56997.1
800,35,8.0,18,0.06,35,0.24948425756492143,119003.6,56989.9
801,35,8.0,18,0.06,36,0.2494848066783603,118987.9,56982.8
802,35,8.0,18,0.06,37,0.2494848190527199,118973.9,56976.6
803,35,8.0,18,0.06,38,0.24948429280366785,118955.9,56968.0
804,35,8.0,18,0.06,39,0.24948383312738556,118941.5,56960.6
805,35,8.0,18,0.06,40,0.24948328181215537,118925.0,56953.2
806,35,8.0,18,0.06,41,0.2494819527259146,118907.3,56943.5
807,35,8.0,18,0.06,42,0.24948175632279698,118890.6,56934.9
808,35,8.0,18,0.06,43,0.24948131484104033,118873.1,56927.1
809,35,8.0,18,0.06,44,0.2494813069797864,118855.4,56918.1
810,35,8.0,18,0.06,45,0.2494803021409774,118840.8,56910.5
811,35,8.0,18,0.06,46,0.2494806302066858,118824.5,56902.5
812,35,8.0,18,0.06,47,0.2494808351633843,118809.6,56895.5
813,35,8.0,18,0.06,48,0.24947996865025904,118793.0,56887.6
814,35,8.0,18,0.06,49,0.24947986098495106,118777.9,56880.5
815,35,8.0,18,0.06,50,0.24947949934692693,118761.1,56872.5
816,35,15.0,15,0.06,0,0.24963706355173915,119561.7,57287.1
817,35,15.0,15,0.06,1,0.2496407074315708,119545.9,57282.0
818,35,15.0,15,0.06,2,0.24963960427720075,119529.9,57274.8
819,35,15.0,15,0.06,3,0.24963996154666446,119515.1,57268.3
820,35,15.0,15,0.06,4,0.2496359212945895,119499.0,57260.9
821,35,15.0,15,0.06,5,0.2496300471595009,119483.0,57252.0
822,35,15.0,15,0.06,6,0.249626745580047,119466.3,57243.9
823,35,15.0,15,0.06,7,0.24962378937020152,119451.0,57235.5
824,35,15.0,15,0.06,8,0.24962113545002337,119433.9,57226.2
825,35,15.0,15,0.06,9,0.24961676324875262,119417.6,57218.4
826,35,15.0,15,0.06,10,0.2496150985788909,119403.4,57211.0
827,35,15.0,15,0.06,11,0.24961306628515137,119386.7,57202.4
828,35,15.0,15,0.06,12,0.24961146150433627,119370.3,57194.5
829,35,15.0,15,0.06,13,0.24960931408682674,119356.7,57187.4
830,35,15.0,15,0.06,14,0.24960605275619088,119340.1,57178.5
831,35,15.0,15,0.06,15,0.24960413341744614,119325.4,57170.5
832,35,15.0,15,0.06,16,0.24960086298955173,119309.8,57161.9
833,35,15.0,15,0.06,17,0.249598649088956,119291.9,57152.7
834,35,15.0,15,0.06,18,0.2495944415670844,119274.5,57142.5
835,35,15.0,15,0.06,19,0.24959176559798407,119257.6,57133.3
836,35,15.0,15,0.06,20,0.24958905691765415,119242.2,57124.6
837,35,15.0,15,0.06,21,0.24958933090107788,119226.9,57117.7
838,35,15.0,15,0.06,22,0.24958815334221826,119210.0,57109.4
839,35,15.0,15,0.06,23,0.24958704867795034,119194.4,57102.0
840,35,15.0,15,0.06,24,0.24958517972228803,119178.8,57094.1
841,35,15.0,15,0.06,25,0.249584229815853,119162.9,57085.4
842,35,15.0,15,0.06,26,0.24958112010539285,119146.3,57076.0
843,35,15.0,15,0.06,27,0.2495793784733118,119130.1,57067.8
844,35,15.0,15,0.06,28,0.24957923361487744,119112.3,57058.8
845,35,15.0,15,0.06,29,0.24957907050447425,119097.3,57051.3
846,35,15.0,15,0.06,30,0.24957658896359164,119081.6,57042.1
847,35,15.0,15,0.06,31,0.24957723704142762,119066.2,57035.6
848,35,15.0,15,0.06,32,0.24957514133274503,119050.0,57026.7
849,35,15.0,15,0.06,33,0.24957482116119428,119033.8,57019.3
850,35,15.0,15,0.06,34,0.24957402781290003,119017.9,57011.7
851,35,15.0,15,0.06,35,0.24957269417319933,119003.6,57004.2
852,35,15.0,15,0.06,36,0.24957321889735526,118987.9,56997.3
853,35,15.0,15,0.06,37,0.24957306486884293,118973.9,56990.8
854,35,15.0,15,0.06,38,0.24957204714058437,118955.9,56981.5
855,35,15.0,15,0.06,39,0.24957141763358687,118941.5,56974.0
856,35,15.0,15,0.06,40,0.24957049884691998,118925.0,56965.9
857,35,15.0,15,0.06,41,0.2495689136291887,118907.3,56956.4
858,35,15.0,15,0.06,42,0.24956870228916367,118890.6,56947.6
859,35,15.0,15,0.06,43,0.24956798161897548,118873.1,56939.4
860,35,15.0,15,0.06,44,0.24956782476113956,118855.4,56931.0
861,35,15.0,15,0.06,45,0.2495666967979769,118840.8,56923.2
862,35,15.0,15,0.06,46,0.24956694068099913,118824.5,56914.5
863,35,15.0,15,0.06,47,0.24956710696189197,118809.6,56907.9
864,35,15.0,15,0.06,48,0.24956591517164398,118793.0,56899.4
865,35,15.0,15,0.06,49,0.24956576050315907,118777.9,56891.9
866,35,15.0,15,0.06,50,0.24956519608249755,118761.1,56884.1
867,35,8.0,15,0.06,0,0.24958591068016758,119561.7,57287.8
868,35,8.0,15,0.06,1,0.2495878039011023,119545.9,57282.0
869,35,8.0,15,0.06,2,0.24958833010428658,119529.9,57274.7
870,35,8.0,15,0.06,3,0.24958940382382785,119515.1,57267.7
871,35,8.0,15,0.06,4,0.24958789229679285,119499.0,57259.9
872,35,8.0,15,0.06,5,0.24958524009982752,119483.0,57250.7
873,35,8.0,15,0.06,6,0.2495839336045874,119466.3,57242.2
874,35,8.0,15,0.06,7,0.24958272755290314,119451.0,57233.9
875,35,8.0,15,0.06,8,0.24958131004848733,119433.9,57225.0
876,35,8.0,15,0.06,9,0.2495788447191547,119417.6,57216.5
877,35,8.0,15,0.06,10,0.24957839907681584,119403.4,57209.6
878,35,8.0,15,0.06,11,0.24957799796907204,119386.7,57201.4
879,35,8.0,15,0.06,12,0.2495772190185968,119370.3,57193.7
880,35,8.0,15,0.06,13,0.2495759552232538,119356.7,57185.8
881,35,8.0,15,0.06,14,0.24957368857062767,119340.1,57176.7
882,35,8.0,15,0.06,15,0.2495726476602461,119325.4,57168.7
883,35,8.0,15,0.06,16,0.24957066859351387,119309.8,57160.1
884,35,8.0,15,0.06,17,0.24956938935294354,119291.9,57150.9
885,35,8.0,15,0.06,18,0.2495663132501031,119274.5,57141.3
886,35,8.0,15,0.06,19,0.24956451000914512,119257.6,57132.0
887,35,8.0,15,0.06,20,0.24956254060935096,119242.2,57123.5
888,35,8.0,15,0.06,21,0.24956290073389048,119226.9,57116.6
889,35,8.0,15,0.06,22,0.24956210631511597,119210.0,57108.5
890,35,8.0,15,0.06,23,0.24956147142262441,119194.4,57101.1
891,35,8.0,15,0.06,24,0.24956008127742796,119178.8,57093.1
892,35,8.0,15,0.06,25,0.24955940012915293,119162.9,57085.0
893,35,8.0,15,0.06,26,0.24955696786230197,119146.3,57075.3
894,35,8.0,15,0.06,27,0.24955576761380213,119130.1,57067.5
895,35,8.0,15,0.06,28,0.24955587663927217,119112.3,57057.9
896,35,8.0,15,0.06,29,0.24955579584707133,119097.3,57050.4
897,35,8.0,15,0.06,30,0.24955379862462984,119081.6,57041.0
898,35,8.0,15,0.06,31,0.2495546611704207,119066.2,57034.2
899,35,8.0,15,0.06,32,0.24955304293383934,119050.0,57025.2
900,35,8.0,15,0.06,33,0.24955292229462983,119033.8,57017.8
901,35,8.0,15,0.06,34,0.24955247414948206,119017.9,57010.1
902,35,8.0,15,0.06,35,0.24955158881372186,119003.6,57002.8
903,35,8.0,15,0.06,36,0.2495521484570038,118987.9,56995.8
904,35,8.0,15,0.06,37,0.24955212237208194,118973.9,56989.3
905,35,8.0,15,0.06,38,0.2495514646079681,118955.9,56980.4
906,35,8.0,15,0.06,39,0.2495509518524907,118941.5,56973.1
907,35,8.0,15,0.06,40,0.24955030567947123,118925.0,56965.4
908,35,8.0,15,0.06,41,0.24954890623586007,118907.3,56955.7
909,35,8.0,15,0.06,42,0.24954871556937036,118890.6,56947.1
910,35,8.0,15,0.06,43,0.2495481900838667,118873.1,56939.4
911,35,8.0,15,0.06,44,0.24954814635747935,118855.4,56930.4
912,35,8.0,15,0.06,45,0.24954709361217287,118840.8,56922.7
913,35,8.0,15,0.06,46,0.24954740785980908,118824.5,56914.5
914,35,8.0,15,0.06,47,0.24954761079951787,118809.6,56907.4
915,35,8.0,15,0.06,48,0.24954664898147833,118793.0,56899.3
916,35,8.0,15,0.06,49,0.2495465259405713,118777.9,56891.9
917,35,8.0,15,0.06,50,0.24954610051474627,118761.1,56884.1
918,35,15.0,18,0.04,0,0.2494826954571848,119561.7,57262.0
919,35,15.0,18,0.04,1,0.2494858338094555,119545.9,57257.0
920,35,15.0,18,0.04,2,0.2494854826943747,119529.9,57249.9
921,35,15.0,18,0.04,3,0.24948626656135714,119515.1,57243.2
922,35,15.0,18,0.04,4,0.24948313669783162,119499.0,57235.8
923,35,15.0,18,0.04,5,0.2494782890904564,119483.0,57226.6
924,35,15.0,18,0.04,6,0.2494756324160452,119466.3,57218.6
925,35,15.0,18,0.04,7,0.24947316921165852,119451.0,57210.2
926,35,15.0,18,0.04,8,0.24947085256401938,119433.9,57200.9
927,35,15.0,18,0.04,9,0.2494670114956475,119417.6,57192.8
928,35,15.0,18,0.04,10,0.24946573100176206,119403.4,57185.5
929,35,15.0,18,0.04,11,0.24946418459746944,119386.7,57177.1
930,35,15.0,18,0.04,12,0.24946282779931966,119370.3,57169.3
931,35,15.0,18,0.04,13,0.24946096093285447,119356.7,57162.2
932,35,15.0,18,0.04,14,0.2494578953494177,119340.1,57153.2
933,35,15.0,18,0.04,15,0.24945617274142826,119325.4,57145.1
934,35,15.0,18,0.04,16,0.249453234844469,119309.8,57136.5
935,35,15.0,18,0.04,17,0.2494512420558883,119291.9,57127.2
936,35,15.0,18,0.04,18,0.24944728987858983,119274.5,57117.2
937,35,15.0,18,0.04,19,0.24944479239781722,119257.6,57108.2
938,35,15.0,18,0.04,20,0.24944223047425748,119242.2,57099.6
939,35,15.0,18,0.04,21,0.2494425358069507,119226.9,57092.8
940,35,15.0,18,0.04,22,0.2494414404003289,119210.0,57084.5
941,35,15.0,18,0.04,23,0.24944045531533732,119194.4,57077.2
942,35,15.0,18,0.04,24,0.24943868846577932,119178.8,57069.7
943,35,15.0,18,0.04,25,0.24943779730726812,119162.9,57061.1
944,35,15.0,18,0.04,26,0.2494348289431862,119146.3,57051.7
945,35,15.0,18,0.04,27,0.24943318316458604,119130.1,57043.5
946,35,15.0,18,0.04,28,0.24943310898702933,119112.3,57034.3
947,35,15.0,18,0.04,29,0.24943296250214647,119097.3,57027.0
948,35,15.0,18,0.04,30,0.2494305793490117,119081.6,57017.6
949,35,15.0,18,0.04,31,0.2494312705176202,119066.2,57011.1
950,35,15.0,18,0.04,32,0.24942928442029647,119050.0,57002.3
951,35,15.0,18,0.04,33,0.24942900286705613,119033.8,56994.9
952,35,15.0,18,0.04,34,0.24942827217528377,119017.9,56987.4
953,35,15.0,18,0.04,35,0.249427016308492,119003.6,56979.9
954,35,15.0,18,0.04,36,0.24942754165053976,118987.9,56972.8
955,35,15.0,18,0.04,37,0.24942741782441447,118973.9,56966.3
956,35,15.0,18,0.04,38,0.2494264549012073,118955.9,56957.0
957,35,15.0,18,0.04,39,0.24942584197069267,118941.5,56949.5
958,35,15.0,18,0.04,40,0.24942496993391966,118925.0,56941.3
959,35,15.0,18,0.04,41,0.2494234082217306,118907.3,56931.8
960,35,15.0,18,0.04,42,0.24942317006594905,118890.6,56923.0
961,35,15.0,18,0.04,43,0.24942246673167148,118873.1,56915.0
962,35,15.0,18,0.04,44,0.2494223121159648,118855.4,56906.1
963,35,15.0,18,0.04,45,0.24942118865517968,118840.8,56898.3
964,35,15.0,18,0.04,46,0.24942143602802344,118824.5,56890.1
965,35,15.0,18,0.04,47,0.24942160653553555,118809.6,56883.4
966,35,15.0,18,0.04,48,0.2494204457127819,118793.0,56875.1
967,35,15.0,18,0.04,49,0.24942027386810248,118777.9,56867.7
968,35,15.0,18,0.04,50,0.24941973523291222,118761.1,56859.9
969,35,11.5,21,0.06,0,0.24949073034948652,119561.7,57283.2
970,35,11.5,21,0.06,1,0.2494926638170949,119545.9,57277.4
971,35,11.5,21,0.06,2,0.2494931601782256,119529.9,57270.3
972,35,11.5,21,0.06,3,0.24949424618232183,119515.1,57263.3
973,35,11.5,21,0.06,4,0.24949267617015108,119499.0,57255.7
974,35,11.5,21,0.06,5,0.24948991468370227,119483.0,57246.6
975,35,11.5,21,0.06,6,0.2494885583570159,119466.3,57238.1
976,35,11.5,21,0.06,7,0.24948728480294952,119451.0,57229.8
977,35,11.5,21,0.06,8,0.24948579568270746,119433.9,57220.8
978,35,11.5,21,0.06,9,0.24948325175209876,119417.6,57212.3
979,35,11.5,21,0.06,10,0.24948275177313164,119403.4,57205.4
980,35,11.5,21,0.06,11,0.2494822826843827,119386.7,57197.0
981,35,11.5,21,0.06,12,0.24948147163907347,119370.3,57189.3
982,35,11.5,21,0.06,13,0.24948018597082297,119356.7,57181.4
983,35,11.5,21,0.06,14,0.249477847076238,119340.1,57172.2
984,35,11.5,21,0.06,15,0.24947673880802634,119325.4,57164.2
985,35,11.5,21,0.06,16,0.24947469922648527,119309.8,57155.6
986,35,11.5,21,0.06,17,0.24947336874658346,119291.9,57146.4
987,35,11.5,21,0.06,18,0.24947022732722218,119274.5,57136.7
988,35,11.5,21,0.06,19,0.249468358512091,119257.6,57127.4
989,35,11.5,21,0.06,20,0.24946632205124217,119242.2,57118.9
990,35,11.5,21,0.06,21,0.2494666767392634,119226.9,57112.0
991,35,11.5,21,0.06,22,0.24946585171087313,119210.0,57103.9
992,35,11.5,21,0.06,23,0.24946519124383043,119194.4,57096.6
993,35,11.5,21,0.06,24,0.24946377782761378,119178.8,57088.8
994,35,11.5,21,0.06,25,0.24946308496776332,119162.9,57080.6
995,35,11.5,21,0.06,26,0.24946061168272196,119146.3,57070.9
996,35,11.5,21,0.06,27,0.24945936380514291,119130.1,57063.1
997,35,11.5,21,0.06,28,0.24945945758548538,119112.3,57053.5
998,35,11.5,21,0.06,29,0.2494593686445737,119097.3,57046.0
999,35,11.5,21,0.06,30,0.24945733972656306,119081.6,57036.8
1000,35,11.5,21,0.06,31,0.24945817969923248,119066.2,57030.0
1001,35,11.5,21,0.06,32,0.2494565303051579,119050.0,57021.1
1002,35,11.5,21,0.06,33,0.24945638929196506,119033.8,57013.7
1003,35,11.5,21,0.06,34,0.24945591125613792,119017.9,57005.9
1004,35,11.5,21,0.06,35,0.24945499026916282,119003.6,56998.6
1005,35,11.5,21,0.06,36,0.24945553951745855,118987.9,56991.6
1006,35,11.5,21,0.06,37,0.24945550462190952,118973.9,56985.1
1007,35,11.5,21,0.06,38,0.2494548113595442,118955.9,56976.1
1008,35,11.5,21,0.06,39,0.24945428794963392,118941.5,56968.8
1009,35,11.5,21,0.06,40,0.2494536157968125,118925.0,56961.0
1010,35,11.5,21,0.06,41,0.24945219322810255,118907.3,56951.1
1011,35,11.5,21,0.06,42,0.24945198044029954,118890.6,56942.5
1012,35,11.5,21,0.06,43,0.24945143243553555,118873.1,56934.8
1013,35,11.5,21,0.06,44,0.24945136418121766,118855.4,56925.8
1014,35,11.5,21,0.06,45,0.24945029998644874,118840.8,56918.1
1015,35,11.5,21,0.06,46,0.249450600356232,118824.5,56909.9
1016,35,11.5,21,0.06,47,0.24945079908338297,118809.6,56902.8
1017,35,11.5,21,0.06,48,0.2494498135142543,118793.0,56894.7
1018,35,11.5,21,0.06,49,0.24944967857886816,118777.9,56887.3
1019,35,11.5,21,0.06,50,0.24944924233151547,118761.1,56879.4
1020,35,15.0,21,0.04,0,0.24945061960018933,119561.7,57285.3
1021,35,15.0,21,0.04,1,0.24945329922132667,119545.9,57280.0
1022,35,15.0,21,0.04,2,0.24945339090756513,119529.9,57272.9
1023,35,15.0,21,0.04,3,0.24945438808657344,119515.1,57266.2
1024,35,15.0,21,0.04,4,0.2494519355517592,119499.0,57258.8
1025,35,15.0,21,0.04,5,0.2494479244445839,119483.0,57249.7
1026,35,15.0,21,0.04,6,0.24944579749869228,119466.3,57241.6
1027,35,15.0,21,0.04,7,0.24944378389411653,119451.0,57233.4
1028,35,15.0,21,0.04,8,0.24944177378907115,119433.9,57224.1
1029,35,15.0,21,0.04,9,0.24943841031896596,119417.6,57215.9
1030,35,15.0,21,0.04,10,0.2494374410734058,119403.4,57208.7
1031,35,15.0,21,0.04,11,0.24943630711786838,119386.7,57200.2
1032,35,15.0,21,0.04,12,0.2494351612661941,119370.3,57192.5
1033,35,15.0,21,0.04,13,0.24943352358835882,119356.7,57185.3
1034,35,15.0,21,0.04,14,0.2494306846388513,119340.1,57176.2
1035,35,15.0,21,0.04,15,0.24942916834714063,119325.4,57168.1
1036,35,15.0,21,0.04,16,0.24942654820020005,119309.8,57159.6
1037,35,15.0,21,0.04,17,0.24942478374601662,119291.9,57150.4
1038,35,15.0,21,0.04,18,0.24942109643418817,119274.5,57140.4
1039,35,15.0,21,0.04,19,0.2494188034565111,119257.6,57131.3
1040,35,15.0,21,0.04,20,0.2494164035429663,119242.2,57122.7
1041,35,15.0,21,0.04,21,0.24941673462544686,119226.9,57115.9
1042,35,15.0,21,0.04,22,0.2494157323187129,119210.0,57107.8
1043,35,15.0,21,0.04,23,0.24941486292877518,119194.4,57100.6
1044,35,15.0,21,0.04,24,0.2494132105562282,119178.8,57092.9
1045,35,15.0,21,0.04,25,0.24941238843615152,119162.9,57084.4
1046,35,15.0,21,0.04,26,0.24940957516074835,119146.3,57074.8
1047,35,15.0,21,0.04,27,0.24940805043960954,119130.1,57066.6
1048,35,15.0,21,0.04,28,0.2494080383381933,119112.3,57057.4
1049,35,15.0,21,0.04,29,0.24940791280986688,119097.3,57050.1
1050,35,15.0,21,0.04,30,0.24940564143499055,119081.6,57040.8
1051,35,15.0,21,0.04,31,0.24940638147175279,119066.2,57034.3
1052,35,15.0,21,0.04,32,0.24940450490586646,119050.0,57025.4
1053,35,15.0,21,0.04,33,0.24940426734685933,119033.8,57017.9
1054,35,15.0,21,0.04,34,0.24940361660579927,119017.9,57010.3
1055,35,15.0,21,0.04,35,0.24940246366399607,119003.6,57002.8
1056,35,15.0,21,0.04,36,0.2494029986596749,118987.9,56995.7
1057,35,15.0,21,0.04,37,0.24940290493778416,118973.9,56989.1
1058,35,15.0,21,0.04,38,0.24940202321020352,118955.9,56979.8
1059,35,15.0,21,0.04,39,0.24940143638016982,118941.5,56972.4
1060,35,15.0,21,0.04,40,0.24940062536591717,118925.0,56964.5
1061,35,15.0,21,0.04,41,0.24939910282258548,118907.3,56955.0
1062,35,15.0,21,0.04,42,0.2493988661270309,118890.6,56946.3
1063,35,15.0,21,0.04,43,0.2493982046987644,118873.1,56938.3
1064,35,15.0,21,0.04,44,0.24939807289027865,118855.4,56929.3
1065,35,15.0,21,0.04,45,0.24939696301741593,118840.8,56921.5
1066,35,15.0,21,0.04,46,0.24939722492487576,118824.5,56913.2
1067,35,15.0,21,0.04,47,0.24939740674406816,118809.6,56906.3
1068,35,15.0,21,0.04,48,0.24939629678853897,118793.0,56898.0
1069,35,15.0,21,0.04,49,0.24939613195095864,118777.9,56890.5
1070,35,15.0,21,0.04,50,0.24939562344567232,118761.1,56882.6
1071,35,15.0,15,0.04,0,0.24952769291227644,119561.7,57293.3
1072,35,15.0,15,0.04,1,0.2495313114621312,119545.9,57288.2
1073,35,15.0,15,0.04,2,0.24953020355448535,119529.9,57281.0
1074,35,15.0,15,0.04,3,0.24953056360745823,119515.1,57274.5
1075,35,15.0,15,0.04,4,0.24952652785162072,119499.0,57267.1
1076,35,15.0,15,0.04,5,0.24952064322245132,119483.0,57258.2
1077,35,15.0,15,0.04,6,0.2495173418682542,119466.3,57250.1
1078,35,15.0,15,0.04,7,0.24951437576374164,119451.0,57241.7
1079,35,15.0,15,0.04,8,0.24951169738800916,119433.9,57232.4
1080,35,15.0,15,0.04,9,0.2495073168568059,119417.6,57224.6
1081,35,15.0,15,0.04,10,0.24950563739226633,119403.4,57217.2
1082,35,15.0,15,0.04,11,0.24950359067989286,119386.7,57208.6
1083,35,15.0,15,0.04,12,0.24950197839288818,119370.3,57200.7
1084,35,15.0,15,0.04,13,0.24949983480642168,119356.7,57193.6
1085,35,15.0,15,0.04,14,0.2494965549837802,119340.1,57184.7
1086,35,15.0,15,0.04,15,0.24949461513670923,119325.4,57176.7
1087,35,15.0,15,0.04,16,0.24949133556683134,119309.8,57168.1
1088,35,15.0,15,0.04,17,0.2494891053967531,119291.9,57158.9
1089,35,15.0,15,0.04,18,0.24948489271432125,119274.5,57148.8
1090,35,15.0,15,0.04,19,0.24948219009882272,119257.6,57139.6
1091,35,15.0,15,0.04,20,0.24947946183214528,119242.2,57130.9
1092,35,15.0,15,0.04,21,0.24947972569541532,119226.9,57124.0
1093,35,15.0,15,0.04,22,0.24947852954265382,119210.0,57115.8
1094,35,15.0,15,0.04,23,0.24947741597200795,119194.4,57108.4
1095,35,15.0,15,0.04,24,0.2494755390298493,119178.8,57100.6
1096,35,15.0,15,0.04,25,0.24947458157495167,119162.9,57091.9
1097,35,15.0,15,0.04,26,0.24947146563123157,119146.3,57082.6
1098,35,15.0,15,0.04,27,0.24946970362228296,119130.1,57074.4
1099,35,15.0,15,0.04,28,0.24946955546587118,119112.3,57065.5
1100,35,15.0,15,0.04,29,0.2494693828993113,119097.3,57058.0
1101,35,15.0,15,0.04,30,0.24946689015078688,119081.6,57048.7
1102,35,15.0,15,0.04,31,0.249467524940159,119066.2,57042.2
1103,35,15.0,15,0.04,32,0.24946542675744995,119050.0,57033.3
1104,35,15.0,15,0.04,33,0.24946509527172545,119033.8,57025.9
1105,35,15.0,15,0.04,34,0.249464284666952,119017.9,57018.3
1106,35,15.0,15,0.04,35,0.24946293296930802,119003.6,57010.8
1107,35,15.0,15,0.04,36,0.24946344487397915,118987.9,57003.8
1108,35,15.0,15,0.04,37,0.24946328741206125,118973.9,56997.3
1109,35,15.0,15,0.04,38,0.24946224837409675,118955.9,56988.1
1110,35,15.0,15,0.04,39,0.24946161295761798,118941.5,56980.6
1111,35,15.0,15,0.04,40,0.2494606790413223,118925.0,56972.5
1112,35,15.0,15,0.04,41,0.24945907879240398,118907.3,56962.9
1113,35,15.0,15,0.04,42,0.2494588421295917,118890.6,56954.2
1114,35,15.0,15,0.04,43,0.24945810622868408,118873.1,56946.0
1115,35,15.0,15,0.04,44,0.2494579306629107,118855.4,56937.5
1116,35,15.0,15,0.04,45,0.24945679796753312,118840.8,56929.7
1117,35,15.0,15,0.04,46,0.24945702948365697,118824.5,56921.1
1118,35,15.0,15,0.04,47,0.24945718894053304,118809.6,56914.5
1119,35,15.0,15,0.04,48,0.24945598275623007,118793.0,56906.0
1120,35,15.0,15,0.04,49,0.24945581123602642,118777.9,56898.5
1121,35,15.0,15,0.04,50,0.2494552433790403,118761.1,56890.7
1122,35,8.0,21,0.02,0,0.24935571667490777,119561.7,57254.4
1123,35,8.0,21,0.02,1,0.24935680436662752,119545.9,57248.2
1124,35,8.0,21,0.02,2,0.24935739860786885,119529.9,57241.3
1125,35,8.0,21,0.02,3,0.24935823097975623,119515.1,57234.7
1126,35,8.0,21,0.02,4,0.24935742767145097,119499.0,57226.7
1127,35,8.0,21,0.02,5,0.2493558374649763,119483.0,57218.2
1128,35,8.0,21,0.02,6,0.24935525628835592,119466.3,57209.8
1129,35,8.0,21,0.02,7,0.2493547680223299,119451.0,57201.5
1130,35,8.0,21,0.02,8,0.24935375694381662,119433.9,57192.6
1131,35,8.0,21,0.02,9,0.24935213048812077,119417.6,57184.0
1132,35,8.0,21,0.02,10,0.24935202557737274,119403.4,57177.3
1133,35,8.0,21,0.02,11,0.24935217525192557,119386.7,57169.4
1134,35,8.0,21,0.02,12,0.2493517466353503,119370.3,57161.7
1135,35,8.0,21,0.02,13,0.24935083538363015,119356.7,57153.8
1136,35,8.0,21,0.02,14,0.24934921557533216,119340.1,57144.8
1137,35,8.0,21,0.02,15,0.24934856573109182,119325.4,57137.0
1138,35,8.0,21,0.02,16,0.24934729661947652,119309.8,57128.5
1139,35,8.0,21,0.02,17,0.2493465165188422,119291.9,57119.7
1140,35,8.0,21,0.02,18,0.24934418009582923,119274.5,57110.2
1141,35,8.0,21,0.02,19,0.24934290762924133,119257.6,57101.3
1142,35,8.0,21,0.02,20,0.24934135081141723,119242.2,57093.1
1143,35,8.0,21,0.02,21,0.24934163359293815,119226.9,57086.4
1144,35,8.0,21,0.02,22,0.2493410107974407,119210.0,57078.4
1145,35,8.0,21,0.02,23,0.249340581341092,119194.4,57070.4
1146,35,8.0,21,0.02,24,0.2493395643287682,119178.8,57062.5
1147,35,8.0,21,0.02,25,0.24933908680298345,119162.9,57054.5
1148,35,8.0,21,0.02,26,0.24933719671370547,119146.3,57045.1
1149,35,8.0,21,0.02,27,0.24933636454058822,119130.1,57037.2
1150,35,8.0,21,0.02,28,0.24933656925960412,119112.3,57028.3
1151,35,8.0,21,0.02,29,0.24933651306390492,119097.3,57020.3
1152,35,8.0,21,0.02,30,0.24933489815917556,119081.6,57011.0
1153,35,8.0,21,0.02,31,0.2493357961058488,119066.2,57004.1
1154,35,8.0,21,0.02,32,0.24933452240516057,119050.0,56995.4
1155,35,8.0,21,0.02,33,0.24933446602560622,119033.8,56988.1
1156,35,8.0,21,0.02,34,0.2493342036804916,119017.9,56980.5
1157,35,8.0,21,0.02,35,0.24933362910847306,119003.6,56973.4
1158,35,8.0,21,0.02,36,0.24933416456128374,118987.9,56966.0
1159,35,8.0,21,0.02,37,0.24933420096073683,118973.9,56959.7
1160,35,8.0,21,0.02,38,0.24933377771357845,118955.9,56951.1
1161,35,8.0,21,0.02,39,0.249333378910974,118941.5,56943.7
1162,35,8.0,21,0.02,40,0.24933289279584034,118925.0,56936.4
1163,35,8.0,21,0.02,41,0.24933160969839827,118907.3,56926.8
1164,35,8.0,21,0.02,42,0.2493313929784816,118890.6,56918.0
1165,35,8.0,21,0.02,43,0.24933101448631936,118873.1,56910.1
1166,35,8.0,21,0.02,44,0.24933103331039524,118855.4,56901.0
1167,35,8.0,21,0.02,45,0.24933007590132653,118840.8,56893.6
1168,35,8.0,21,0.02,46,0.2493303937040229,118824.5,56885.8
1169,35,8.0,21,0.02,47,0.24933061276542062,118809.6,56878.8
1170,35,8.0,21,0.02,48,0.24932983683332122,118793.0,56871.0
1171,35,8.0,21,0.02,49,0.2493297563005407,118777.9,56864.0
1172,35,8.0,21,0.02,50,0.2493294540096973,118761.1,56856.3
1173,35,11.5,21,0.02,0,0.2493914147443798,119561.7,57259.4
1174,35,11.5,21,0.02,1,0.24939331620092978,119545.9,57253.7
1175,35,11.5,21,0.02,2,0.24939381866984123,119529.9,57246.7
1176,35,11.5,21,0.02,3,0.24939489119219202,119515.1,57239.8
1177,35,11.5,21,0.02,4,0.2493933676210364,119499.0,57232.1
1178,35,11.5,21,0.02,5,0.2493906028689104,119483.0,57223.0
1179,35,11.5,21,0.02,6,0.2493892889324827,119466.3,57214.5
1180,35,11.5,21,0.02,7,0.2493880234714941,119451.0,57206.1
1181,35,11.5,21,0.02,8,0.24938649563226528,119433.9,57197.1
1182,35,11.5,21,0.02,9,0.2493839395608708,119417.6,57188.6
1183,35,11.5,21,0.02,10,0.249383422425059,119403.4,57181.8
1184,35,11.5,21,0.02,11,0.24938292614715746,119386.7,57173.4
1185,35,11.5,21,0.02,12,0.24938212708762436,119370.3,57165.8
1186,35,11.5,21,0.02,13,0.24938085422520362,119356.7,57158.0
1187,35,11.5,21,0.02,14,0.24937848689026082,119340.1,57148.9
1188,35,11.5,21,0.02,15,0.2493773440189045,119325.4,57141.0
1189,35,11.5,21,0.02,16,0.24937531051298292,119309.8,57132.4
1190,35,11.5,21,0.02,17,0.2493739744204626,119291.9,57123.2
1191,35,11.5,21,0.02,18,0.24937082425470694,119274.5,57113.5
1192,35,11.5,21,0.02,19,0.24936893999948376,119257.6,57104.3
1193,35,11.5,21,0.02,20,0.24936685690380905,119242.2,57095.7
1194,35,11.5,21,0.02,21,0.24936719593459328,119226.9,57088.8
1195,35,11.5,21,0.02,22,0.24936636086867647,119210.0,57080.7
1196,35,11.5,21,0.02,23,0.24936569360441402,119194.4,57073.4
1197,35,11.5,21,0.02,24,0.249364283512247,119178.8,57065.6
1198,35,11.5,21,0.02,25,0.24936360906591237,119162.9,57057.4
1199,35,11.5,21,0.02,26,0.24936113420055522,119146.3,57047.7
1200,35,11.5,21,0.02,27,0.249359864895486,119130.1,57039.8
1201,35,11.5,21,0.02,28,0.24935995788745835,119112.3,57030.3
1202,35,11.5,21,0.02,29,0.2493598681574008,119097.3,57022.8
1203,35,11.5,21,0.02,30,0.2493578372600065,119081.6,57013.6
1204,35,11.5,21,0.02,31,0.24935865342870295,119066.2,57006.8
1205,35,11.5,21,0.02,32,0.2493570050396705,119050.0,56998.0
1206,35,11.5,21,0.02,33,0.24935683972660594,119033.8,56990.6
1207,35,11.5,21,0.02,34,0.2493563443335292,119017.9,56982.8
1208,35,11.5,21,0.02,35,0.24935541034565128,119003.6,56975.5
1209,35,11.5,21,0.02,36,0.24935595800098373,118987.9,56968.5
1210,35,11.5,21,0.02,37,0.24935591891150546,118973.9,56962.0
1211,35,11.5,21,0.02,38,0.2493552089697965,118955.9,56953.0
1212,35,11.5,21,0.02,39,0.24935468714952083,118941.5,56945.7
1213,35,11.5,21,0.02,40,0.2493539973532061,118925.0,56937.9
1214,35,11.5,21,0.02,41,0.24935255522035607,118907.3,56928.0
1215,35,11.5,21,0.02,42,0.24935232272440705,118890.6,56919.3
1216,35,11.5,21,0.02,43,0.24935175830273248,118873.1,56911.6
1217,35,11.5,21,0.02,44,0.24935167953682075,118855.4,56902.5
1218,35,11.5,21,0.02,45,0.24935061142094744,118840.8,56894.8
1219,35,11.5,21,0.02,46,0.24935089597776955,118824.5,56886.8
1220,35,11.5,21,0.02,47,0.24935110151918555,118809.6,56879.9
1221,35,11.5,21,0.02,48,0.2493501091425095,118793.0,56871.9
1222,35,11.5,21,0.02,49,0.24934997139787402,118777.9,56864.6
1223,35,11.5,21,0.02,50,0.24934953067656496,118761.1,56856.7
1224,35,11.5,15,0.02,0,0.24943175988420613,119561.7,57273.9
1225,35,11.5,15,0.02,1,0.2494346441763972,119545.9,57269.0
1226,35,11.5,15,0.02,2,0.24943455871020173,119529.9,57261.9
1227,35,11.5,15,0.02,3,0.24943547020313908,119515.1,57255.2
1228,35,11.5,15,0.02,4,0.24943273383505066,119499.0,57247.8
1229,35,11.5,15,0.02,5,0.24942834345421877,119483.0,57238.5
1230,35,11.5,15,0.02,6,0.24942598773981106,119466.3,57230.4
1231,35,11.5,15,0.02,7,0.24942376798108698,119451.0,57222.1
1232,35,11.5,15,0.02,8,0.24942160575813657,119433.9,57212.8
1233,35,11.5,15,0.02,9,0.24941801693237148,119417.6,57204.7
1234,35,11.5,15,0.02,10,0.2494169029195834,119403.4,57197.5
1235,35,11.5,15,0.02,11,0.2494155727831857,119386.7,57189.1
1236,35,11.5,15,0.02,12,0.24941433342846087,119370.3,57181.3
1237,35,11.5,15,0.02,13,0.24941259451704828,119356.7,57174.1
1238,35,11.5,15,0.02,14,0.24940963774462893,119340.1,57165.0
1239,35,11.5,15,0.02,15,0.2494080157278654,119325.4,57156.8
1240,35,11.5,15,0.02,16,0.2494052472751512,119309.8,57148.3
1241,35,11.5,15,0.02,17,0.24940337203947877,119291.9,57139.1
1242,35,11.5,15,0.02,18,0.24939955650660234,119274.5,57129.1
1243,35,11.5,15,0.02,19,0.2493971599890014,119257.6,57120.1
1244,35,11.5,15,0.02,20,0.24939467126395515,119242.2,57111.6
1245,35,11.5,15,0.02,21,0.24939498661738818,119226.9,57104.8
1246,35,11.5,15,0.02,22,0.24939393663745898,119210.0,57096.7
1247,35,11.5,15,0.02,23,0.2493930111672175,119194.4,57089.5
1248,35,11.5,15,0.02,24,0.24939130258474834,119178.8,57081.8
1249,35,11.5,15,0.02,25,0.2493904507886741,119162.9,57073.2
1250,35,11.5,15,0.02,26,0.2493875620008758,119146.3,57063.6
1251,35,11.5,15,0.02,27,0.24938597167574555,119130.1,57055.4
1252,35,11.5,15,0.02,28,0.2493859321207224,119112.3,57046.1
1253,35,11.5,15,0.02,29,0.24938579583375525,119097.3,57038.8
1254,35,11.5,15,0.02,30,0.24938346921303994,119081.6,57029.6
1255,35,11.5,15,0.02,31,0.24938417995386866,119066.2,57023.1
1256,35,11.5,15,0.02,32,0.24938225318364107,119050.0,57014.3
1257,35,11.5,15,0.02,33,0.24938198824368224,119033.8,57006.9
1258,35,11.5,15,0.02,34,0.24938129333593406,119017.9,56999.3
1259,35,11.5,15,0.02,35,0.24938008480255971,119003.6,56991.8
1260,35,11.5,15,0.02,36,0.24938061449695179,118987.9,56984.7
1261,35,11.5,15,0.02,37,0.2493805058036201,118973.9,56978.1
1262,35,11.5,15,0.02,38,0.24937957856676968,118955.9,56968.8
1263,35,11.5,15,0.02,39,0.24937897847637275,118941.5,56961.4
1264,35,11.5,15,0.02,40,0.24937813243663717,118925.0,56953.4
1265,35,11.5,15,0.02,41,0.24937658498711007,118907.3,56943.9
1266,35,11.5,15,0.02,42,0.24937634040332973,118890.6,56935.2
1267,35,11.5,15,0.02,43,0.24937565223179675,118873.1,56927.2
1268,35,11.5,15,0.02,44,0.24937550588912302,118855.4,56918.1
1269,35,11.5,15,0.02,45,0.24937438852154523,118840.8,56910.3
1270,35,11.5,15,0.02,46,0.2493746389468349,118824.5,56902.0
1271,35,11.5,15,0.02,47,0.24937481633287195,118809.6,56895.2
1272,35,11.5,15,0.02,48,0.24937367811282024,118793.0,56887.1
1273,35,11.5,15,0.02,49,0.24937350629626623,118777.9,56879.7
1274,35,11.5,15,0.02,50,0.24937298180058848,118761.1,56871.9
1275,35,8.0,18,0.02,0,0.24937380955056493,119561.7,57254.6
1276,35,8.0,18,0.02,1,0.2493752037852605,119545.9,57248.8
1277,35,8.0,18,0.02,2,0.24937579999509968,119529.9,57242.0
1278,35,8.0,18,0.02,3,0.2493767657406925,119515.1,57235.0
1279,35,8.0,18,0.02,4,0.24937571402832076,119499.0,57227.2
1280,35,8.0,18,0.02,5,0.24937370178734933,119483.0,57218.2
1281,35,8.0,18,0.02,6,0.24937285986851418,119466.3,57209.5
1282,35,8.0,18,0.02,7,0.24937208340558387,119451.0,57201.3
1283,35,8.0,18,0.02,8,0.24937088144332858,119433.9,57192.4
1284,35,8.0,18,0.02,9,0.2493688977884944,119417.6,57183.8
1285,35,8.0,18,0.02,10,0.24936864872073175,119403.4,57177.1
1286,35,8.0,18,0.02,11,0.2493685681770212,119386.7,57168.9
1287,35,8.0,18,0.02,12,0.24936799748085225,119370.3,57161.2
1288,35,8.0,18,0.02,13,0.24936695240474832,119356.7,57153.2
1289,35,8.0,18,0.02,14,0.24936501510512463,119340.1,57144.1
1290,35,8.0,18,0.02,15,0.24936417049411666,119325.4,57136.1
1291,35,8.0,18,0.02,16,0.24936258898906355,119309.8,57127.8
1292,35,8.0,18,0.02,17,0.24936158537549552,119291.9,57118.9
1293,35,8.0,18,0.02,18,0.24935890292174118,119274.5,57109.3
1294,35,8.0,18,0.02,19,0.24935737103861047,119257.6,57100.3
1295,35,8.0,18,0.02,20,0.24935558851304687,119242.2,57092.0
1296,35,8.0,18,0.02,21,0.24935590859115284,119226.9,57085.3
1297,35,8.0,18,0.02,22,0.2493552009634732,119210.0,57077.1
1298,35,8.0,18,0.02,23,0.2493546796537907,119194.4,57069.4
1299,35,8.0,18,0.02,24,0.24935349074536775,119178.8,57061.5
1300,35,8.0,18,0.02,25,0.2493529294628262,119162.9,57053.5
1301,35,8.0,18,0.02,26,0.24935077766592947,119146.3,57044.1
1302,35,8.0,18,0.02,27,0.2493497532329994,119130.1,57036.3
1303,35,8.0,18,0.02,28,0.24934991550239927,119112.3,57027.5
1304,35,8.0,18,0.02,29,0.24934984775913138,119097.3,57019.8
1305,35,8.0,18,0.02,30,0.24934804557927168,119081.6,57010.4
1306,35,8.0,18,0.02,31,0.24934891823900038,119066.2,57003.6
1307,35,8.0,18,0.02,32,0.24934747700698884,119050.0,56994.8
1308,35,8.0,18,0.02,33,0.2493473783996111,119033.8,56987.3
1309,35,8.0,18,0.02,34,0.24934701951836719,119017.9,56979.5
1310,35,8.0,18,0.02,35,0.24934629000939323,119003.6,56972.4
1311,35,8.0,18,0.02,36,0.2493468351863246,118987.9,56965.6
1312,35,8.0,18,0.02,37,0.24934684115879957,118973.9,56959.3
1313,35,8.0,18,0.02,38,0.24934629403412156,118955.9,56950.7
1314,35,8.0,18,0.02,39,0.2493458371757263,118941.5,56943.3
1315,35,8.0,18,0.02,40,0.24934526392624184,118925.0,56935.9
1316,35,8.0,18,0.02,41,0.2493439092363407,118907.3,56926.2
1317,35,8.0,18,0.02,42,0.249343686666825,118890.6,56917.5
1318,35,8.0,18,0.02,43,0.2493432258290431,118873.1,56909.7
1319,35,8.0,18,0.02,44,0.24934319984539705,118855.4,56900.6
1320,35,8.0,18,0.02,45,0.24934218657389443,118840.8,56893.0
1321,35,8.0,18,0.02,46,0.24934249343180928,118824.5,56885.0
1322,35,8.0,18,0.02,47,0.2493427085132264,118809.6,56878.0
1323,35,8.0,18,0.02,48,0.2493418332075139,118793.0,56870.2
1324,35,8.0,18,0.02,49,0.2493417259228016,118777.9,56863.1
1325,35,8.0,18,0.02,50,0.2493413580922646,118761.1,56855.1
1326,35,15.0,18,0.06,0,0.2495646178962488,119561.7,57279.4
1327,35,15.0,18,0.06,1,0.2495677758501736,119545.9,57274.5
1328,35,15.0,18,0.06,2,0.24956742532775067,119529.9,57267.3
1329,35,15.0,18,0.06,3,0.2495682078479058,119515.1,57260.6
1330,35,15.0,18,0.06,4,0.2495650663691206,119499.0,57253.2
1331,35,15.0,18,0.06,5,0.24956022523216803,119483.0,57244.0
1332,35,15.0,18,0.06,6,0.24955755984672817,119466.3,57235.9
1333,35,15.0,18,0.06,7,0.24955510096218753,119451.0,57227.5
1334,35,15.0,18,0.06,8,0.24955280602544078,119433.9,57218.2
1335,35,15.0,18,0.06,9,0.24954897143198457,119417.6,57210.1
1336,35,15.0,18,0.06,10,0.2495477031730046,119403.4,57202.8
1337,35,15.0,18,0.06,11,0.24954616864950302,119386.7,57194.4
1338,35,15.0,18,0.06,12,0.24954481441510348,119370.3,57186.7
1339,35,15.0,18,0.06,13,0.2495429433502699,119356.7,57179.6
1340,35,15.0,18,0.06,14,0.24953989338486932,119340.1,57170.6
1341,35,15.0,18,0.06,15,0.24953818846537262,119325.4,57162.6
1342,35,15.0,18,0.06,16,0.24953525559197587,119309.8,57154.0
1343,35,15.0,18,0.06,17,0.24953327355197574,119291.9,57144.7
1344,35,15.0,18,0.06,18,0.2495293258914181,119274.5,57134.7
1345,35,15.0,18,0.06,19,0.24952684716128318,119257.6,57125.7
1346,35,15.0,18,0.06,20,0.24952430433546727,119242.2,57117.0
1347,35,15.0,18,0.06,21,0.24952461731548753,119226.9,57110.2
1348,35,15.0,18,0.06,22,0.24952353483712852,119210.0,57102.0
1349,35,15.0,18,0.06,23,0.24952255618215208,119194.4,57094.7
1350,35,15.0,18,0.06,24,0.24952079320151377,119178.8,57087.1
1351,35,15.0,18,0.06,25,0.2495199041856921,119162.9,57078.5
1352,35,15.0,18,0.06,26,0.2495169397454024,119146.3,57069.1
1353,35,15.0,18,0.06,27,0.2495153100029242,119130.1,57060.9
1354,35,15.0,18,0.06,28,0.24951523807876774,119112.3,57051.9
1355,35,15.0,18,0.06,29,0.24951509741621042,119097.3,57044.6
1356,35,15.0,18,0.06,30,0.24951272108485992,119081.6,57035.1
1357,35,15.0,18,0.06,31,0.24951342400965476,119066.2,57028.6
1358,35,15.0,18,0.06,32,0.24951143928574687,119050.0,57019.8
1359,35,15.0,18,0.06,33,0.2495111679600967,119033.8,57012.4
1360,35,15.0,18,0.06,34,0.24951045035733982,119017.9,57004.9
1361,35,15.0,18,0.06,35,0.24950920759762055,119003.6,56997.4
1362,35,15.0,18,0.06,36,0.2495097409418662,118987.9,56990.3
1363,35,15.0,18,0.06,37,0.249509619661774,118973.9,56983.7
1364,35,15.0,18,0.06,38,0.24950867199225368,118955.9,56974.4
1365,35,15.0,18,0.06,39,0.24950806295550482,118941.5,56966.9
1366,35,15.0,18,0.06,40,0.24950720261293996,118925.0,56958.8
1367,35,15.0,18,0.06,41,0.24950565281659762,118907.3,56949.3
1368,35,15.0,18,0.06,42,0.24950543289420218,118890.6,56940.5
1369,35,15.0,18,0.06,43,0.24950474122815763,118873.1,56932.5
1370,35,15.0,18,0.06,44,0.24950459969539024,118855.4,56923.9
1371,35,15.0,18,0.06,45,0.2495034795895313,118840.8,56916.1
1372,35,15.0,18,0.06,46,0.24950373655092756,118824.5,56907.8
1373,35,15.0,18,0.06,47,0.2495039104503574,118809.6,56901.1
1374,35,15.0,18,0.06,48,0.2495027599749798,118793.0,56892.8
1375,35,15.0,18,0.06,49,0.24950259888953247,118777.9,56885.4
1376,35,15.0,18,0.06,50,0.24950206328832825,118761.1,56877.8
